%!PS-Adobe-3.0 EPSF-3.0
%%Title: /Users/markusklinker/Dropbox/XCHEM-Manual/pics/rad1.eps
%%Creator: matplotlib version 3.0.2, http://matplotlib.org/
%%CreationDate: Mon Feb 18 14:23:50 2019
%%Orientation: portrait
%%BoundingBox: 66 215 545 576
%%EndComments
%%BeginProlog
/mpldict 11 dict def
mpldict begin
/m { moveto } bind def
/l { lineto } bind def
/r { rlineto } bind def
/c { curveto } bind def
/cl { closepath } bind def
/box {
m
1 index 0 r
0 exch r
neg 0 r
cl
} bind def
/clipbox {
box
clip
newpath
} bind def
%!PS-Adobe-3.0 Resource-Font
%%Title: DejaVu Sans
%%Copyright: Copyright (c) 2003 by Bitstream, Inc. All Rights Reserved. Copyright (c) 2006 by Tavmjong Bah. All Rights Reserved. DejaVu changes are in public domain 
%%Creator: Converted from TrueType to type 3 by PPR
25 dict begin
/_d{bind def}bind def
/_m{moveto}_d
/_l{lineto}_d
/_cl{closepath eofill}_d
/_c{curveto}_d
/_sc{7 -1 roll{setcachedevice}{pop pop pop pop pop pop}ifelse}_d
/_e{exec}_d
/FontName /DejaVuSans def
/PaintType 0 def
/FontMatrix[.001 0 0 .001 0 0]def
/FontBBox[-1021 -463 1793 1232]def
/FontType 3 def
/Encoding [ /space /quotesingle /parenleft /parenright /period /zero /one /two /three /four /five /six /seven /eight /nine /R /a /b /d /e /f /g /h /i /l /n /o /r /s /t /u /v /y /minus ] def
/FontInfo 10 dict dup begin
/FamilyName (DejaVu Sans) def
/FullName (DejaVu Sans) def
/Notice (Copyright (c) 2003 by Bitstream, Inc. All Rights Reserved. Copyright (c) 2006 by Tavmjong Bah. All Rights Reserved. DejaVu changes are in public domain ) def
/Weight (Book) def
/Version (Version 2.35) def
/ItalicAngle 0.0 def
/isFixedPitch false def
/UnderlinePosition -130 def
/UnderlineThickness 90 def
end readonly def
/CharStrings 35 dict dup begin
/.notdef 0 def
/space{318 0 0 0 0 0 _sc
}_d
/quotesingle{275 0 96 458 179 729 _sc
179 729 _m
179 458 _l
96 458 _l
96 729 _l
179 729 _l
_cl}_d
/parenleft{390 0 86 -131 310 759 _sc
310 759 _m
266 683 234 609 213 536 _c
191 463 181 389 181 314 _c
181 238 191 164 213 91 _c
234 17 266 -56 310 -131 _c
232 -131 _l
183 -54 146 20 122 94 _c
98 168 86 241 86 314 _c
86 386 98 459 122 533 _c
146 607 182 682 232 759 _c
310 759 _l
_cl}_d
/parenright{390 0 80 -131 304 759 _sc
80 759 _m
158 759 _l
206 682 243 607 267 533 _c
291 459 304 386 304 314 _c
304 241 291 168 267 94 _c
243 20 206 -54 158 -131 _c
80 -131 _l
123 -56 155 17 177 91 _c
198 164 209 238 209 314 _c
209 389 198 463 177 536 _c
155 609 123 683 80 759 _c
_cl}_d
/period{318 0 107 0 210 124 _sc
107 124 _m
210 124 _l
210 0 _l
107 0 _l
107 124 _l
_cl}_d
/zero{636 0 66 -13 570 742 _sc
318 664 _m
267 664 229 639 203 589 _c
177 539 165 464 165 364 _c
165 264 177 189 203 139 _c
229 89 267 64 318 64 _c
369 64 407 89 433 139 _c
458 189 471 264 471 364 _c
471 464 458 539 433 589 _c
407 639 369 664 318 664 _c
318 742 _m
399 742 461 709 505 645 _c
548 580 570 486 570 364 _c
570 241 548 147 505 83 _c
461 19 399 -13 318 -13 _c
236 -13 173 19 130 83 _c
87 147 66 241 66 364 _c
66 486 87 580 130 645 _c
173 709 236 742 318 742 _c
_cl}_d
/one{636 0 110 0 544 729 _sc
124 83 _m
285 83 _l
285 639 _l
110 604 _l
110 694 _l
284 729 _l
383 729 _l
383 83 _l
544 83 _l
544 0 _l
124 0 _l
124 83 _l
_cl}_d
/two{{636 0 73 0 536 742 _sc
192 83 _m
536 83 _l
536 0 _l
73 0 _l
73 83 _l
110 121 161 173 226 239 _c
290 304 331 346 348 365 _c
380 400 402 430 414 455 _c
426 479 433 504 433 528 _c
433 566 419 598 392 622 _c
365 646 330 659 286 659 _c
255 659 222 653 188 643 _c
154 632 117 616 78 594 _c
78 694 _l
118 710 155 722 189 730 _c
223 738 255 742 284 742 _c
}_e{359 742 419 723 464 685 _c
509 647 532 597 532 534 _c
532 504 526 475 515 449 _c
504 422 484 390 454 354 _c
446 344 420 317 376 272 _c
332 227 271 164 192 83 _c
_cl}_e}_d
/three{{636 0 76 -13 556 742 _sc
406 393 _m
453 383 490 362 516 330 _c
542 298 556 258 556 212 _c
556 140 531 84 482 45 _c
432 6 362 -13 271 -13 _c
240 -13 208 -10 176 -4 _c
144 1 110 10 76 22 _c
76 117 _l
103 101 133 89 166 81 _c
198 73 232 69 268 69 _c
330 69 377 81 409 105 _c
441 129 458 165 458 212 _c
458 254 443 288 413 312 _c
383 336 341 349 287 349 _c
}_e{202 349 _l
202 430 _l
291 430 _l
339 430 376 439 402 459 _c
428 478 441 506 441 543 _c
441 580 427 609 401 629 _c
374 649 336 659 287 659 _c
260 659 231 656 200 650 _c
169 644 135 635 98 623 _c
98 711 _l
135 721 170 729 203 734 _c
235 739 266 742 296 742 _c
370 742 429 725 473 691 _c
517 657 539 611 539 553 _c
539 513 527 479 504 451 _c
481 423 448 403 406 393 _c
_cl}_e}_d
/four{636 0 49 0 580 729 _sc
378 643 _m
129 254 _l
378 254 _l
378 643 _l
352 729 _m
476 729 _l
476 254 _l
580 254 _l
580 172 _l
476 172 _l
476 0 _l
378 0 _l
378 172 _l
49 172 _l
49 267 _l
352 729 _l
_cl}_d
/five{{636 0 77 -13 549 729 _sc
108 729 _m
495 729 _l
495 646 _l
198 646 _l
198 467 _l
212 472 227 476 241 478 _c
255 480 270 482 284 482 _c
365 482 429 459 477 415 _c
525 370 549 310 549 234 _c
549 155 524 94 475 51 _c
426 8 357 -13 269 -13 _c
238 -13 207 -10 175 -6 _c
143 -1 111 6 77 17 _c
77 116 _l
106 100 136 88 168 80 _c
199 72 232 69 267 69 _c
}_e{323 69 368 83 401 113 _c
433 143 450 183 450 234 _c
450 284 433 324 401 354 _c
368 384 323 399 267 399 _c
241 399 214 396 188 390 _c
162 384 135 375 108 363 _c
108 729 _l
_cl}_e}_d
/six{{636 0 70 -13 573 742 _sc
330 404 _m
286 404 251 388 225 358 _c
199 328 186 286 186 234 _c
186 181 199 139 225 109 _c
251 79 286 64 330 64 _c
374 64 409 79 435 109 _c
461 139 474 181 474 234 _c
474 286 461 328 435 358 _c
409 388 374 404 330 404 _c
526 713 _m
526 623 _l
501 635 476 644 451 650 _c
425 656 400 659 376 659 _c
310 659 260 637 226 593 _c
}_e{192 549 172 482 168 394 _c
187 422 211 444 240 459 _c
269 474 301 482 336 482 _c
409 482 467 459 509 415 _c
551 371 573 310 573 234 _c
573 159 550 99 506 54 _c
462 9 403 -13 330 -13 _c
246 -13 181 19 137 83 _c
92 147 70 241 70 364 _c
70 479 97 571 152 639 _c
206 707 280 742 372 742 _c
396 742 421 739 447 735 _c
472 730 498 723 526 713 _c
_cl}_e}_d
/seven{636 0 82 0 551 729 _sc
82 729 _m
551 729 _l
551 687 _l
286 0 _l
183 0 _l
432 646 _l
82 646 _l
82 729 _l
_cl}_d
/eight{{636 0 68 -13 568 742 _sc
318 346 _m
271 346 234 333 207 308 _c
180 283 167 249 167 205 _c
167 161 180 126 207 101 _c
234 76 271 64 318 64 _c
364 64 401 76 428 102 _c
455 127 469 161 469 205 _c
469 249 455 283 429 308 _c
402 333 365 346 318 346 _c
219 388 _m
177 398 144 418 120 447 _c
96 476 85 511 85 553 _c
85 611 105 657 147 691 _c
188 725 245 742 318 742 _c
}_e{390 742 447 725 489 691 _c
530 657 551 611 551 553 _c
551 511 539 476 515 447 _c
491 418 459 398 417 388 _c
464 377 501 355 528 323 _c
554 291 568 251 568 205 _c
568 134 546 80 503 43 _c
459 5 398 -13 318 -13 _c
237 -13 175 5 132 43 _c
89 80 68 134 68 205 _c
68 251 81 291 108 323 _c
134 355 171 377 219 388 _c
183 544 _m
183 506 194 476 218 455 _c
}_e{242 434 275 424 318 424 _c
360 424 393 434 417 455 _c
441 476 453 506 453 544 _c
453 582 441 611 417 632 _c
393 653 360 664 318 664 _c
275 664 242 653 218 632 _c
194 611 183 582 183 544 _c
_cl}_e}_d
/nine{{636 0 63 -13 566 742 _sc
110 15 _m
110 105 _l
134 93 159 84 185 78 _c
210 72 235 69 260 69 _c
324 69 374 90 408 134 _c
442 178 462 244 468 334 _c
448 306 424 284 396 269 _c
367 254 335 247 300 247 _c
226 247 168 269 126 313 _c
84 357 63 417 63 494 _c
63 568 85 628 129 674 _c
173 719 232 742 306 742 _c
390 742 455 709 499 645 _c
543 580 566 486 566 364 _c
}_e{566 248 538 157 484 89 _c
429 21 356 -13 264 -13 _c
239 -13 214 -10 189 -6 _c
163 -2 137 5 110 15 _c
306 324 _m
350 324 385 339 411 369 _c
437 399 450 441 450 494 _c
450 546 437 588 411 618 _c
385 648 350 664 306 664 _c
262 664 227 648 201 618 _c
175 588 162 546 162 494 _c
162 441 175 399 201 369 _c
227 339 262 324 306 324 _c
_cl}_e}_d
/R{{695 0 98 0 666 729 _sc
444 342 _m
465 334 486 319 506 296 _c
526 272 546 240 566 199 _c
666 0 _l
560 0 _l
467 187 _l
443 235 419 268 397 284 _c
374 300 343 308 304 308 _c
197 308 _l
197 0 _l
98 0 _l
98 729 _l
321 729 _l
404 729 466 711 507 677 _c
548 642 569 589 569 519 _c
569 473 558 434 537 404 _c
515 374 484 353 444 342 _c
197 648 _m
197 389 _l
321 389 _l
}_e{368 389 404 400 428 422 _c
452 444 465 476 465 519 _c
465 561 452 593 428 615 _c
404 637 368 648 321 648 _c
197 648 _l
_cl}_e}_d
/a{{613 0 60 -13 522 560 _sc
343 275 _m
270 275 220 266 192 250 _c
164 233 150 205 150 165 _c
150 133 160 107 181 89 _c
202 70 231 61 267 61 _c
317 61 357 78 387 114 _c
417 149 432 196 432 255 _c
432 275 _l
343 275 _l
522 312 _m
522 0 _l
432 0 _l
432 83 _l
411 49 385 25 355 10 _c
325 -5 287 -13 243 -13 _c
187 -13 142 2 109 33 _c
76 64 60 106 60 159 _c
}_e{60 220 80 266 122 298 _c
163 329 224 345 306 345 _c
432 345 _l
432 354 _l
432 395 418 427 391 450 _c
364 472 326 484 277 484 _c
245 484 215 480 185 472 _c
155 464 127 453 100 439 _c
100 522 _l
132 534 164 544 195 550 _c
226 556 256 560 286 560 _c
365 560 424 539 463 498 _c
502 457 522 395 522 312 _c
_cl}_e}_d
/b{{635 0 91 -13 580 760 _sc
487 273 _m
487 339 473 390 446 428 _c
418 466 381 485 334 485 _c
286 485 249 466 222 428 _c
194 390 181 339 181 273 _c
181 207 194 155 222 117 _c
249 79 286 61 334 61 _c
381 61 418 79 446 117 _c
473 155 487 207 487 273 _c
181 464 _m
199 496 223 520 252 536 _c
281 552 316 560 356 560 _c
422 560 476 533 518 481 _c
559 428 580 359 580 273 _c
}_e{580 187 559 117 518 65 _c
476 13 422 -13 356 -13 _c
316 -13 281 -5 252 10 _c
223 25 199 49 181 82 _c
181 0 _l
91 0 _l
91 760 _l
181 760 _l
181 464 _l
_cl}_e}_d
/d{{635 0 55 -13 544 760 _sc
454 464 _m
454 760 _l
544 760 _l
544 0 _l
454 0 _l
454 82 _l
435 49 411 25 382 10 _c
353 -5 319 -13 279 -13 _c
213 -13 159 13 117 65 _c
75 117 55 187 55 273 _c
55 359 75 428 117 481 _c
159 533 213 560 279 560 _c
319 560 353 552 382 536 _c
411 520 435 496 454 464 _c
148 273 _m
148 207 161 155 188 117 _c
215 79 253 61 301 61 _c
}_e{348 61 385 79 413 117 _c
440 155 454 207 454 273 _c
454 339 440 390 413 428 _c
385 466 348 485 301 485 _c
253 485 215 466 188 428 _c
161 390 148 339 148 273 _c
_cl}_e}_d
/e{{615 0 55 -13 562 560 _sc
562 296 _m
562 252 _l
149 252 _l
153 190 171 142 205 110 _c
238 78 284 62 344 62 _c
378 62 412 66 444 74 _c
476 82 509 95 541 113 _c
541 28 _l
509 14 476 3 442 -3 _c
408 -9 373 -13 339 -13 _c
251 -13 182 12 131 62 _c
80 112 55 181 55 268 _c
55 357 79 428 127 481 _c
175 533 241 560 323 560 _c
397 560 455 536 498 489 _c
}_e{540 441 562 377 562 296 _c
472 322 _m
471 371 457 410 431 440 _c
404 469 368 484 324 484 _c
274 484 234 469 204 441 _c
174 413 156 373 152 322 _c
472 322 _l
_cl}_e}_d
/f{352 0 23 0 371 760 _sc
371 760 _m
371 685 _l
285 685 _l
253 685 230 678 218 665 _c
205 652 199 629 199 595 _c
199 547 _l
347 547 _l
347 477 _l
199 477 _l
199 0 _l
109 0 _l
109 477 _l
23 477 _l
23 547 _l
109 547 _l
109 585 _l
109 645 123 690 151 718 _c
179 746 224 760 286 760 _c
371 760 _l
_cl}_d
/g{{635 0 55 -207 544 560 _sc
454 280 _m
454 344 440 395 414 431 _c
387 467 349 485 301 485 _c
253 485 215 467 188 431 _c
161 395 148 344 148 280 _c
148 215 161 165 188 129 _c
215 93 253 75 301 75 _c
349 75 387 93 414 129 _c
440 165 454 215 454 280 _c
544 68 _m
544 -24 523 -93 482 -139 _c
440 -184 377 -207 292 -207 _c
260 -207 231 -204 203 -200 _c
175 -195 147 -188 121 -178 _c
}_e{121 -91 _l
147 -105 173 -115 199 -122 _c
225 -129 251 -133 278 -133 _c
336 -133 380 -117 410 -87 _c
439 -56 454 -10 454 52 _c
454 96 _l
435 64 411 40 382 24 _c
353 8 319 0 279 0 _c
211 0 157 25 116 76 _c
75 127 55 195 55 280 _c
55 364 75 432 116 483 _c
157 534 211 560 279 560 _c
319 560 353 552 382 536 _c
411 520 435 496 454 464 _c
454 547 _l
544 547 _l
}_e{544 68 _l
_cl}_e}_d
/h{634 0 91 0 549 760 _sc
549 330 _m
549 0 _l
459 0 _l
459 327 _l
459 379 448 417 428 443 _c
408 469 378 482 338 482 _c
289 482 251 466 223 435 _c
195 404 181 362 181 309 _c
181 0 _l
91 0 _l
91 760 _l
181 760 _l
181 462 _l
202 494 227 519 257 535 _c
286 551 320 560 358 560 _c
420 560 468 540 500 501 _c
532 462 549 405 549 330 _c
_cl}_d
/i{278 0 94 0 184 760 _sc
94 547 _m
184 547 _l
184 0 _l
94 0 _l
94 547 _l
94 760 _m
184 760 _l
184 646 _l
94 646 _l
94 760 _l
_cl}_d
/l{278 0 94 0 184 760 _sc
94 760 _m
184 760 _l
184 0 _l
94 0 _l
94 760 _l
_cl}_d
/n{634 0 91 0 549 560 _sc
549 330 _m
549 0 _l
459 0 _l
459 327 _l
459 379 448 417 428 443 _c
408 469 378 482 338 482 _c
289 482 251 466 223 435 _c
195 404 181 362 181 309 _c
181 0 _l
91 0 _l
91 547 _l
181 547 _l
181 462 _l
202 494 227 519 257 535 _c
286 551 320 560 358 560 _c
420 560 468 540 500 501 _c
532 462 549 405 549 330 _c
_cl}_d
/o{612 0 55 -13 557 560 _sc
306 484 _m
258 484 220 465 192 427 _c
164 389 150 338 150 273 _c
150 207 163 156 191 118 _c
219 80 257 62 306 62 _c
354 62 392 80 420 118 _c
448 156 462 207 462 273 _c
462 337 448 389 420 427 _c
392 465 354 484 306 484 _c
306 560 _m
384 560 445 534 490 484 _c
534 433 557 363 557 273 _c
557 183 534 113 490 63 _c
445 12 384 -13 306 -13 _c
227 -13 165 12 121 63 _c
77 113 55 183 55 273 _c
55 363 77 433 121 484 _c
165 534 227 560 306 560 _c
_cl}_d
/r{411 0 91 0 411 560 _sc
411 463 _m
401 469 390 473 378 476 _c
366 478 353 480 339 480 _c
288 480 249 463 222 430 _c
194 397 181 350 181 288 _c
181 0 _l
91 0 _l
91 547 _l
181 547 _l
181 462 _l
199 495 224 520 254 536 _c
284 552 321 560 365 560 _c
371 560 378 559 386 559 _c
393 558 401 557 411 555 _c
411 463 _l
_cl}_d
/s{{521 0 54 -13 472 560 _sc
443 531 _m
443 446 _l
417 458 391 468 364 475 _c
336 481 308 485 279 485 _c
234 485 200 478 178 464 _c
156 450 145 430 145 403 _c
145 382 153 366 169 354 _c
185 342 217 330 265 320 _c
296 313 _l
360 299 405 279 432 255 _c
458 230 472 195 472 151 _c
472 100 452 60 412 31 _c
372 1 316 -13 246 -13 _c
216 -13 186 -10 154 -5 _c
}_e{122 0 89 8 54 20 _c
54 113 _l
87 95 120 82 152 74 _c
184 65 216 61 248 61 _c
290 61 323 68 346 82 _c
368 96 380 117 380 144 _c
380 168 371 187 355 200 _c
339 213 303 226 247 238 _c
216 245 _l
160 257 119 275 95 299 _c
70 323 58 356 58 399 _c
58 450 76 490 112 518 _c
148 546 200 560 268 560 _c
301 560 332 557 362 552 _c
391 547 418 540 443 531 _c
}_e{_cl}_e}_d
/t{392 0 27 0 368 702 _sc
183 702 _m
183 547 _l
368 547 _l
368 477 _l
183 477 _l
183 180 _l
183 135 189 106 201 94 _c
213 81 238 75 276 75 _c
368 75 _l
368 0 _l
276 0 _l
206 0 158 13 132 39 _c
106 65 93 112 93 180 _c
93 477 _l
27 477 _l
27 547 _l
93 547 _l
93 702 _l
183 702 _l
_cl}_d
/u{634 0 85 -13 543 560 _sc
85 216 _m
85 547 _l
175 547 _l
175 219 _l
175 167 185 129 205 103 _c
225 77 255 64 296 64 _c
344 64 383 79 411 110 _c
439 141 453 183 453 237 _c
453 547 _l
543 547 _l
543 0 _l
453 0 _l
453 84 _l
431 50 405 26 377 10 _c
348 -5 315 -13 277 -13 _c
214 -13 166 6 134 45 _c
101 83 85 140 85 216 _c
311 560 _m
311 560 _l
_cl}_d
/v{592 0 30 0 562 547 _sc
30 547 _m
125 547 _l
296 88 _l
467 547 _l
562 547 _l
357 0 _l
235 0 _l
30 547 _l
_cl}_d
/y{592 0 30 -207 562 547 _sc
322 -50 _m
296 -114 271 -157 247 -177 _c
223 -197 191 -207 151 -207 _c
79 -207 _l
79 -132 _l
132 -132 _l
156 -132 175 -126 189 -114 _c
203 -102 218 -75 235 -31 _c
251 9 _l
30 547 _l
125 547 _l
296 119 _l
467 547 _l
562 547 _l
322 -50 _l
_cl}_d
/minus{838 0 106 272 732 355 _sc
106 355 _m
732 355 _l
732 272 _l
106 272 _l
106 355 _l
_cl}_d
end readonly def

/BuildGlyph
 {exch begin
 CharStrings exch
 2 copy known not{pop /.notdef}if
 true 3 1 roll get exec
 end}_d

/BuildChar {
 1 index /Encoding get exch get
 1 index /BuildGlyph get exec
}_d

FontName currentdict end definefont pop
%!PS-Adobe-3.0 Resource-Font
%%Title: DejaVu Sans Oblique
%%Copyright: Copyright (c) 2003 by Bitstream, Inc. All Rights Reserved. Copyright (c) 2006 by Tavmjong Bah. All Rights Reserved. DejaVu changes are in public domain 
%%Creator: Converted from TrueType to type 3 by PPR
25 dict begin
/_d{bind def}bind def
/_m{moveto}_d
/_l{lineto}_d
/_cl{closepath eofill}_d
/_c{curveto}_d
/_sc{7 -1 roll{setcachedevice}{pop pop pop pop pop pop}ifelse}_d
/_e{exec}_d
/FontName /DejaVuSans-Oblique def
/PaintType 0 def
/FontMatrix[.001 0 0 .001 0 0]def
/FontBBox[-1016 -350 1659 1068]def
/FontType 3 def
/Encoding [ /d /r /rho ] def
/FontInfo 10 dict dup begin
/FamilyName (DejaVu Sans) def
/FullName (DejaVu Sans Oblique) def
/Notice (Copyright (c) 2003 by Bitstream, Inc. All Rights Reserved. Copyright (c) 2006 by Tavmjong Bah. All Rights Reserved. DejaVu changes are in public domain ) def
/Weight (Oblique) def
/Version (Version 2.35) def
/ItalicAngle -11.0 def
/isFixedPitch false def
/UnderlinePosition -130 def
/UnderlineThickness 90 def
end readonly def
/CharStrings 4 dict dup begin
/.notdef 0 def
/d{{635 0 46 -13 639 760 _sc
418 82 _m
394 50 365 27 332 11 _c
299 -5 263 -13 223 -13 _c
168 -13 125 5 93 42 _c
61 79 46 130 46 195 _c
46 249 55 300 75 349 _c
94 398 122 442 158 481 _c
182 507 209 526 239 540 _c
269 553 301 560 335 560 _c
370 560 401 551 428 534 _c
454 517 475 493 490 462 _c
549 760 _l
639 760 _l
491 0 _l
401 0 _l
418 82 _l
139 211 _m
}_e{139 163 149 126 171 100 _c
192 74 222 61 260 61 _c
288 61 314 67 338 81 _c
362 95 383 115 401 141 _c
420 168 435 200 446 236 _c
457 272 463 307 463 342 _c
463 387 452 422 431 448 _c
409 473 380 486 343 486 _c
314 486 287 479 263 466 _c
239 452 218 433 201 408 _c
182 381 167 350 156 314 _c
144 278 139 243 139 211 _c
_cl}_e}_d
/r{411 0 35 0 463 560 _sc
446 464 _m
436 468 426 472 414 475 _c
402 477 390 479 377 479 _c
329 479 287 460 251 424 _c
215 388 192 339 180 279 _c
125 0 _l
35 0 _l
142 547 _l
232 547 _l
215 462 _l
238 493 266 517 300 534 _c
333 551 368 560 406 560 _c
415 560 424 559 434 558 _c
444 557 453 555 463 553 _c
446 464 _l
_cl}_d
/rho{{635 0 16 -207 599 560 _sc
188 449 _m
214 482 254 513 310 543 _c
331 554 371 560 431 560 _c
497 560 545 533 577 481 _c
608 428 615 359 599 273 _c
582 187 548 117 496 65 _c
444 13 385 -13 319 -13 _c
279 -13 246 -5 220 10 _c
194 25 175 49 163 82 _c
106 -207 _l
16 -207 _l
109 268 _l
123 343 150 403 188 449 _c
506 273 _m
518 339 515 391 495 429 _c
475 466 441 485 394 485 _c
}_e{346 485 305 466 271 429 _c
236 391 212 339 200 273 _c
187 207 190 155 210 117 _c
230 79 263 61 311 61 _c
359 61 400 79 435 117 _c
469 155 492 207 506 273 _c
_cl}_e}_d
end readonly def

/BuildGlyph
 {exch begin
 CharStrings exch
 2 copy known not{pop /.notdef}if
 true 3 1 roll get exec
 end}_d

/BuildChar {
 1 index /Encoding get exch get
 1 index /BuildGlyph get exec
}_d

FontName currentdict end definefont pop
%!PS-Adobe-3.0 Resource-Font
%%Title: DejaVu Sans Display
%%Copyright: Copyright (c) 2003 by Bitstream, Inc. All Rights Reserved. Copyright (c) 2006 by Tavmjong Bah. All Rights Reserved. DejaVu changes are in public domain 
%%Creator: Converted from TrueType to type 3 by PPR
25 dict begin
/_d{bind def}bind def
/_m{moveto}_d
/_l{lineto}_d
/_cl{closepath eofill}_d
/_c{curveto}_d
/_sc{7 -1 roll{setcachedevice}{pop pop pop pop pop pop}ifelse}_d
/_e{exec}_d
/FontName /DejaVuSansDisplay def
/PaintType 0 def
/FontMatrix[.001 0 0 .001 0 0]def
/FontBBox[-45 -463 1793 1232]def
/FontType 3 def
/Encoding [ /integral ] def
/FontInfo 10 dict dup begin
/FamilyName (DejaVu Sans Display) def
/FullName (DejaVu Sans Display) def
/Notice (Copyright (c) 2003 by Bitstream, Inc. All Rights Reserved. Copyright (c) 2006 by Tavmjong Bah. All Rights Reserved. DejaVu changes are in public domain ) def
/Weight (Book) def
/Version (Version 2.35) def
/ItalicAngle 0.0 def
/isFixedPitch false def
/UnderlinePosition -130 def
/UnderlineThickness 90 def
end readonly def
/CharStrings 2 dict dup begin
/.notdef 0 def
/integral{736 0 81 -299 656 1070 _sc
333 863 _m
337 940 357 994 395 1024 _c
432 1054 468 1070 503 1070 _c
537 1070 569 1055 599 1027 _c
628 998 647 951 656 887 _c
554 877 _l
546 937 529 967 503 967 _c
470 967 452 926 448 846 _c
403 -92 _l
399 -168 379 -222 342 -253 _c
304 -283 268 -299 234 -299 _c
199 -299 167 -284 138 -256 _c
108 -227 89 -180 81 -116 _c
183 -106 _l
191 -166 208 -196 234 -196 _c
266 -196 285 -155 289 -75 _c
333 863 _l
_cl}_d
end readonly def

/BuildGlyph
 {exch begin
 CharStrings exch
 2 copy known not{pop /.notdef}if
 true 3 1 roll get exec
 end}_d

/BuildChar {
 1 index /Encoding get exch get
 1 index /BuildGlyph get exec
}_d

FontName currentdict end definefont pop
%!PS-Adobe-3.0 Resource-Font
%%Title: cmsy10
%%Copyright: Copyright (C) 1994, Basil K. Malyshev. All Rights Reserved.012BaKoMa Fonts Collection, Level-B.
%%Creator: Converted from TrueType to type 3 by PPR
25 dict begin
/_d{bind def}bind def
/_m{moveto}_d
/_l{lineto}_d
/_cl{closepath eofill}_d
/_c{curveto}_d
/_sc{7 -1 roll{setcachedevice}{pop pop pop pop pop pop}ifelse}_d
/_e{exec}_d
/FontName /Cmsy10 def
/PaintType 0 def
/FontMatrix[.001 0 0 .001 0 0]def
/FontBBox[-29 -960 1123 779]def
/FontType 3 def
/Encoding [ /prime ] def
/FontInfo 10 dict dup begin
/FamilyName (cmsy10) def
/FullName (cmsy10) def
/Notice (Copyright (C) 1994, Basil K. Malyshev. All Rights Reserved.012BaKoMa Fonts Collection, Level-B. ) def
/Weight (Regular) def
/Version (1.1/12-Nov-94) def
/ItalicAngle 0.0 def
/isFixedPitch false def
/UnderlinePosition -133 def
/UnderlineThickness 20 def
end readonly def
/CharStrings 2 dict dup begin
/.notdef 0 def
/prime{275 0 29 43 262 559 _sc
35 54 _m
31 55 29 58 29 64 _c
151 518 _l
155 530 161 540 171 548 _c
180 555 191 559 203 559 _c
219 559 232 553 244 543 _c
256 533 262 520 262 505 _c
262 498 260 490 257 482 _c
76 50 _l
74 45 71 43 67 43 _c
63 43 58 44 50 48 _c
42 51 37 53 35 54 _c
_cl}_d
end readonly def

/BuildGlyph
 {exch begin
 CharStrings exch
 2 copy known not{pop /.notdef}if
 true 3 1 roll get exec
 end}_d

/BuildChar {
 1 index /Encoding get exch get
 1 index /BuildGlyph get exec
}_d

FontName currentdict end definefont pop
end
%%EndProlog
mpldict begin
66.273 215.853 translate
479.453 360.294 0 0 clipbox
gsave
0 0 m
479.453125 0 l
479.453125 360.29375 l
0 360.29375 l
cl
1.000 setgray
fill
grestore
gsave
77.2 45.29375 m
467.8 45.29375 l
467.8 317.09375 l
77.2 317.09375 l
cl
1.000 setgray
fill
grestore
0.800 setlinewidth
1 setlinejoin
0 setlinecap
[] 0 setdash
0.000 setgray
gsave
/o {
gsave
newpath
translate
0.8 setlinewidth
1 setlinejoin
0 setlinecap
0 0 m
0 -3.5 l

gsave
0.000 setgray
fill
grestore
stroke
grestore
} bind def
77.2 45.2938 o
grestore
/DejaVuSans findfont
14.000 scalefont
setfont
gsave
72.746875 27.653125 translate
0.000000 rotate
0.000000 0.000000 m /zero glyphshow
grestore
gsave
/o {
gsave
newpath
translate
0.8 setlinewidth
1 setlinejoin
0 setlinecap
0 0 m
0 -3.5 l

gsave
0.000 setgray
fill
grestore
stroke
grestore
} bind def
133 45.2938 o
grestore
gsave
128.546875 27.653125 translate
0.000000 rotate
0.000000 0.000000 m /one glyphshow
grestore
gsave
/o {
gsave
newpath
translate
0.8 setlinewidth
1 setlinejoin
0 setlinecap
0 0 m
0 -3.5 l

gsave
0.000 setgray
fill
grestore
stroke
grestore
} bind def
188.8 45.2938 o
grestore
gsave
184.346875 27.653125 translate
0.000000 rotate
0.000000 0.000000 m /two glyphshow
grestore
gsave
/o {
gsave
newpath
translate
0.8 setlinewidth
1 setlinejoin
0 setlinecap
0 0 m
0 -3.5 l

gsave
0.000 setgray
fill
grestore
stroke
grestore
} bind def
244.6 45.2938 o
grestore
gsave
240.146875 27.653125 translate
0.000000 rotate
0.000000 0.000000 m /three glyphshow
grestore
gsave
/o {
gsave
newpath
translate
0.8 setlinewidth
1 setlinejoin
0 setlinecap
0 0 m
0 -3.5 l

gsave
0.000 setgray
fill
grestore
stroke
grestore
} bind def
300.4 45.2938 o
grestore
gsave
295.946875 27.653125 translate
0.000000 rotate
0.000000 0.000000 m /four glyphshow
grestore
gsave
/o {
gsave
newpath
translate
0.8 setlinewidth
1 setlinejoin
0 setlinecap
0 0 m
0 -3.5 l

gsave
0.000 setgray
fill
grestore
stroke
grestore
} bind def
356.2 45.2938 o
grestore
gsave
351.746875 27.653125 translate
0.000000 rotate
0.000000 0.000000 m /five glyphshow
grestore
gsave
/o {
gsave
newpath
translate
0.8 setlinewidth
1 setlinejoin
0 setlinecap
0 0 m
0 -3.5 l

gsave
0.000 setgray
fill
grestore
stroke
grestore
} bind def
412 45.2938 o
grestore
gsave
407.546875 27.653125 translate
0.000000 rotate
0.000000 0.000000 m /six glyphshow
grestore
gsave
/o {
gsave
newpath
translate
0.8 setlinewidth
1 setlinejoin
0 setlinecap
0 0 m
0 -3.5 l

gsave
0.000 setgray
fill
grestore
stroke
grestore
} bind def
467.8 45.2938 o
grestore
gsave
463.346875 27.653125 translate
0.000000 rotate
0.000000 0.000000 m /seven glyphshow
grestore
gsave
248.500000 10.106250 translate
0.000000 rotate
/DejaVuSans-Oblique findfont
14.0 scalefont
setfont
0.000000 0.375000 moveto
/r glyphshow

/DejaVuSans findfont
14.0 scalefont
setfont
5.755859 0.375000 moveto
/space glyphshow

10.206055 0.375000 moveto
/parenleft glyphshow

15.667969 0.375000 moveto
/a glyphshow

24.247070 0.375000 moveto
/period glyphshow

28.697266 0.375000 moveto
/u glyphshow

37.570312 0.375000 moveto
/period glyphshow

42.020508 0.375000 moveto
/parenright glyphshow


grestore
gsave
/o {
gsave
newpath
translate
0.8 setlinewidth
1 setlinejoin
0 setlinecap
0 0 m
-3.5 0 l

gsave
0.000 setgray
fill
grestore
stroke
grestore
} bind def
77.2 45.2937 o
grestore
gsave
37.200000 39.746875 translate
0.000000 rotate
/DejaVuSans findfont
14.0 scalefont
setfont
0.000000 0.367188 moveto
/one glyphshow

8.907227 0.367188 moveto
/zero glyphshow

/DejaVuSans findfont
9.799999999999999 scalefont
setfont
17.948438 5.726562 moveto
/minus glyphshow

26.159766 5.726562 moveto
/three glyphshow


grestore
gsave
/o {
gsave
newpath
translate
0.8 setlinewidth
1 setlinejoin
0 setlinecap
0 0 m
-3.5 0 l

gsave
0.000 setgray
fill
grestore
stroke
grestore
} bind def
77.2 134.661 o
grestore
gsave
37.200000 129.113829 translate
0.000000 rotate
/DejaVuSans findfont
14.0 scalefont
setfont
0.000000 0.367188 moveto
/one glyphshow

8.907227 0.367188 moveto
/zero glyphshow

/DejaVuSans findfont
9.799999999999999 scalefont
setfont
17.948438 5.726562 moveto
/minus glyphshow

26.159766 5.726562 moveto
/two glyphshow


grestore
gsave
/o {
gsave
newpath
translate
0.8 setlinewidth
1 setlinejoin
0 setlinecap
0 0 m
-3.5 0 l

gsave
0.000 setgray
fill
grestore
stroke
grestore
} bind def
77.2 224.028 o
grestore
gsave
37.200000 218.480783 translate
0.000000 rotate
/DejaVuSans findfont
14.0 scalefont
setfont
0.000000 0.498438 moveto
/one glyphshow

8.907227 0.498438 moveto
/zero glyphshow

/DejaVuSans findfont
9.799999999999999 scalefont
setfont
17.948438 5.857813 moveto
/minus glyphshow

26.159766 5.857813 moveto
/one glyphshow


grestore
gsave
/o {
gsave
newpath
translate
0.8 setlinewidth
1 setlinejoin
0 setlinecap
0 0 m
-3.5 0 l

gsave
0.000 setgray
fill
grestore
stroke
grestore
} bind def
77.2 313.395 o
grestore
gsave
45.200000 307.847737 translate
0.000000 rotate
/DejaVuSans findfont
14.0 scalefont
setfont
0.000000 0.367188 moveto
/one glyphshow

8.907227 0.367188 moveto
/zero glyphshow

/DejaVuSans findfont
9.799999999999999 scalefont
setfont
17.948438 5.726562 moveto
/zero glyphshow


grestore
0.600 setlinewidth
gsave
/o {
gsave
newpath
translate
0.6 setlinewidth
1 setlinejoin
0 setlinecap
0 0 m
-2 0 l

gsave
0.000 setgray
fill
grestore
stroke
grestore
} bind def
77.2 72.1959 o
grestore
gsave
/o {
gsave
newpath
translate
0.6 setlinewidth
1 setlinejoin
0 setlinecap
0 0 m
-2 0 l

gsave
0.000 setgray
fill
grestore
stroke
grestore
} bind def
77.2 87.9326 o
grestore
gsave
/o {
gsave
newpath
translate
0.6 setlinewidth
1 setlinejoin
0 setlinecap
0 0 m
-2 0 l

gsave
0.000 setgray
fill
grestore
stroke
grestore
} bind def
77.2 99.098 o
grestore
gsave
/o {
gsave
newpath
translate
0.6 setlinewidth
1 setlinejoin
0 setlinecap
0 0 m
-2 0 l

gsave
0.000 setgray
fill
grestore
stroke
grestore
} bind def
77.2 107.759 o
grestore
gsave
/o {
gsave
newpath
translate
0.6 setlinewidth
1 setlinejoin
0 setlinecap
0 0 m
-2 0 l

gsave
0.000 setgray
fill
grestore
stroke
grestore
} bind def
77.2 114.835 o
grestore
gsave
/o {
gsave
newpath
translate
0.6 setlinewidth
1 setlinejoin
0 setlinecap
0 0 m
-2 0 l

gsave
0.000 setgray
fill
grestore
stroke
grestore
} bind def
77.2 120.818 o
grestore
gsave
/o {
gsave
newpath
translate
0.6 setlinewidth
1 setlinejoin
0 setlinecap
0 0 m
-2 0 l

gsave
0.000 setgray
fill
grestore
stroke
grestore
} bind def
77.2 126 o
grestore
gsave
/o {
gsave
newpath
translate
0.6 setlinewidth
1 setlinejoin
0 setlinecap
0 0 m
-2 0 l

gsave
0.000 setgray
fill
grestore
stroke
grestore
} bind def
77.2 130.571 o
grestore
gsave
/o {
gsave
newpath
translate
0.6 setlinewidth
1 setlinejoin
0 setlinecap
0 0 m
-2 0 l

gsave
0.000 setgray
fill
grestore
stroke
grestore
} bind def
77.2 161.563 o
grestore
gsave
/o {
gsave
newpath
translate
0.6 setlinewidth
1 setlinejoin
0 setlinecap
0 0 m
-2 0 l

gsave
0.000 setgray
fill
grestore
stroke
grestore
} bind def
77.2 177.3 o
grestore
gsave
/o {
gsave
newpath
translate
0.6 setlinewidth
1 setlinejoin
0 setlinecap
0 0 m
-2 0 l

gsave
0.000 setgray
fill
grestore
stroke
grestore
} bind def
77.2 188.465 o
grestore
gsave
/o {
gsave
newpath
translate
0.6 setlinewidth
1 setlinejoin
0 setlinecap
0 0 m
-2 0 l

gsave
0.000 setgray
fill
grestore
stroke
grestore
} bind def
77.2 197.126 o
grestore
gsave
/o {
gsave
newpath
translate
0.6 setlinewidth
1 setlinejoin
0 setlinecap
0 0 m
-2 0 l

gsave
0.000 setgray
fill
grestore
stroke
grestore
} bind def
77.2 204.202 o
grestore
gsave
/o {
gsave
newpath
translate
0.6 setlinewidth
1 setlinejoin
0 setlinecap
0 0 m
-2 0 l

gsave
0.000 setgray
fill
grestore
stroke
grestore
} bind def
77.2 210.185 o
grestore
gsave
/o {
gsave
newpath
translate
0.6 setlinewidth
1 setlinejoin
0 setlinecap
0 0 m
-2 0 l

gsave
0.000 setgray
fill
grestore
stroke
grestore
} bind def
77.2 215.367 o
grestore
gsave
/o {
gsave
newpath
translate
0.6 setlinewidth
1 setlinejoin
0 setlinecap
0 0 m
-2 0 l

gsave
0.000 setgray
fill
grestore
stroke
grestore
} bind def
77.2 219.938 o
grestore
gsave
/o {
gsave
newpath
translate
0.6 setlinewidth
1 setlinejoin
0 setlinecap
0 0 m
-2 0 l

gsave
0.000 setgray
fill
grestore
stroke
grestore
} bind def
77.2 250.93 o
grestore
gsave
/o {
gsave
newpath
translate
0.6 setlinewidth
1 setlinejoin
0 setlinecap
0 0 m
-2 0 l

gsave
0.000 setgray
fill
grestore
stroke
grestore
} bind def
77.2 266.667 o
grestore
gsave
/o {
gsave
newpath
translate
0.6 setlinewidth
1 setlinejoin
0 setlinecap
0 0 m
-2 0 l

gsave
0.000 setgray
fill
grestore
stroke
grestore
} bind def
77.2 277.832 o
grestore
gsave
/o {
gsave
newpath
translate
0.6 setlinewidth
1 setlinejoin
0 setlinecap
0 0 m
-2 0 l

gsave
0.000 setgray
fill
grestore
stroke
grestore
} bind def
77.2 286.492 o
grestore
gsave
/o {
gsave
newpath
translate
0.6 setlinewidth
1 setlinejoin
0 setlinecap
0 0 m
-2 0 l

gsave
0.000 setgray
fill
grestore
stroke
grestore
} bind def
77.2 293.569 o
grestore
gsave
/o {
gsave
newpath
translate
0.6 setlinewidth
1 setlinejoin
0 setlinecap
0 0 m
-2 0 l

gsave
0.000 setgray
fill
grestore
stroke
grestore
} bind def
77.2 299.551 o
grestore
gsave
/o {
gsave
newpath
translate
0.6 setlinewidth
1 setlinejoin
0 setlinecap
0 0 m
-2 0 l

gsave
0.000 setgray
fill
grestore
stroke
grestore
} bind def
77.2 304.734 o
grestore
gsave
/o {
gsave
newpath
translate
0.6 setlinewidth
1 setlinejoin
0 setlinecap
0 0 m
-2 0 l

gsave
0.000 setgray
fill
grestore
stroke
grestore
} bind def
77.2 309.305 o
grestore
gsave
25.200000 135.693750 translate
90.000000 rotate
/DejaVuSans findfont
14.0 scalefont
setfont
0.000000 0.587500 moveto
/one glyphshow

11.634766 0.587500 moveto
/minus glyphshow

/DejaVuSansDisplay findfont
14.0 scalefont
setfont
26.092773 0.587500 moveto
/integral glyphshow

/DejaVuSans-Oblique findfont
9.799999999999999 scalefont
setfont
38.236953 12.509375 moveto
/r glyphshow

/DejaVuSans findfont
9.799999999999999 scalefont
setfont
36.139141 -6.678125 moveto
/zero glyphshow

/DejaVuSans-Oblique findfont
14.0 scalefont
setfont
42.374199 0.587500 moveto
/rho glyphshow

/DejaVuSans findfont
14.0 scalefont
setfont
51.260918 0.587500 moveto
/parenleft glyphshow

/DejaVuSans-Oblique findfont
14.0 scalefont
setfont
56.722832 0.587500 moveto
/r glyphshow

/Cmsy10 findfont
9.799999999999999 scalefont
setfont
63.130202 5.946875 moveto
/prime glyphshow

/DejaVuSans findfont
14.0 scalefont
setfont
66.207057 0.587500 moveto
/parenright glyphshow

/DejaVuSans-Oblique findfont
14.0 scalefont
setfont
71.668971 0.587500 moveto
/d glyphshow

80.555690 0.587500 moveto
/r glyphshow

/Cmsy10 findfont
9.799999999999999 scalefont
setfont
86.963060 5.946875 moveto
/prime glyphshow


grestore
3.000 setlinewidth
2 setlinecap
0.122 0.467 0.706 setrgbcolor
gsave
390.6 271.8 77.2 45.29 clipbox
77.2 313.394612 m
203.254217 313.309896 l
208.856627 313.059112 l
211.657831 312.819802 l
214.459036 312.181429 l
220.061446 309.42023 l
222.862651 305.789986 l
225.663855 296.665852 l
228.46506 286.32843 l
231.266265 271.686261 l
234.06747 246.44452 l
239.66988 207.837099 l
242.471084 180.509481 l
245.272289 151.352094 l
248.073494 126.287714 l
250.874699 87.481569 l
252.338949 -1 l
252.338949 -1 l
stroke
grestore
1.000 0.498 0.055 setrgbcolor
gsave
390.6 271.8 77.2 45.29 clipbox
77.2 313.394612 m
203.254217 313.309063 l
208.856627 313.057447 l
211.657831 312.81772 l
214.459036 312.178585 l
220.061446 309.415429 l
222.862651 305.784197 l
225.663855 296.657964 l
228.46506 286.317635 l
231.266265 271.674314 l
234.06747 246.426641 l
239.66988 207.805293 l
242.471084 180.46421 l
245.272289 151.275832 l
248.073494 126.175916 l
250.874699 87.275289 l
252.214163 -1 l
252.214163 -1 l
stroke
grestore
0.173 0.627 0.173 setrgbcolor
gsave
390.6 271.8 77.2 45.29 clipbox
77.2 313.394612 m
150.031325 313.309861 l
155.633735 313.115051 l
158.43494 312.919302 l
161.236145 312.543869 l
164.037349 311.886744 l
166.838554 310.850699 l
169.639759 308.596005 l
172.440964 305.023504 l
175.242169 298.947064 l
180.844578 275.165036 l
183.645783 258.164812 l
186.446988 243.036609 l
189.248193 222.901379 l
192.049398 203.66989 l
194.850602 179.467807 l
200.453012 129.084151 l
203.254217 86.555615 l
203.756702 -1 l
203.756702 -1 l
stroke
grestore
0.839 0.153 0.157 setrgbcolor
gsave
390.6 271.8 77.2 45.29 clipbox
77.2 313.394612 m
116.416867 313.306011 l
133.224096 313.045221 l
144.428916 312.676037 l
152.83253 312.215116 l
161.236145 311.572991 l
166.838554 311.017218 l
172.440964 310.270393 l
175.242169 309.827751 l
186.446988 307.478155 l
192.049398 306.015336 l
197.651807 304.225498 l
203.254217 302.134509 l
208.856627 299.761496 l
211.657831 298.524717 l
220.061446 294.206338 l
222.862651 292.561951 l
228.46506 288.677647 l
234.06747 284.461089 l
239.66988 280.205441 l
242.471084 277.880533 l
248.073494 272.696499 l
250.874699 270.002603 l
256.477108 263.712253 l
259.278313 260.452409 l
262.079518 256.987983 l
267.681928 249.517448 l
270.483133 245.871842 l
276.085542 237.617399 l
281.687952 229.479353 l
301.296386 198.689466 l
306.898795 189.536112 l
309.7 185.072828 l
326.507229 157.065934 l
329.308434 152.424224 l
334.910843 142.807482 l
337.712048 138.176434 l
346.115663 123.812067 l
357.320482 104.683973 l
362.922892 94.819141 l
376.928916 70.065509 l
390.93494 43.181453 l
396.537349 31.75618 l
402.139759 19.190634 l
404.940964 12.52029 l
407.742169 5.407543 l
410.084175 -1 l
410.084175 -1 l
stroke
grestore
0.580 0.404 0.741 setrgbcolor
gsave
390.6 271.8 77.2 45.29 clipbox
77.2 313.394612 m
144.428916 313.304127 l
161.236145 313.032334 l
169.639759 312.734657 l
178.043373 312.250571 l
186.446988 311.50643 l
192.049398 310.836011 l
197.651807 309.956004 l
203.254217 308.881159 l
208.856627 307.644384 l
211.657831 306.970687 l
217.260241 305.336766 l
220.061446 304.419521 l
222.862651 303.352333 l
228.46506 300.598373 l
234.06747 297.51644 l
236.868675 295.979384 l
239.66988 294.289982 l
242.471084 292.395572 l
245.272289 290.307998 l
248.073494 288.032306 l
250.874699 285.607196 l
253.675904 282.889365 l
259.278313 276.915364 l
262.079518 273.680069 l
270.483133 263.100425 l
281.687952 247.397175 l
290.091566 234.890044 l
295.693976 226.209758 l
298.495181 222.08031 l
306.898795 208.650558 l
309.7 204.293506 l
337.712048 158.317403 l
346.115663 144.18813 l
351.718072 134.725475 l
368.525301 106.166061 l
385.33253 76.6424 l
396.537349 55.994823 l
404.940964 39.343018 l
410.543373 27.504265 l
416.145783 15.012156 l
418.946988 8.172847 l
422.48399 -1 l
422.48399 -1 l
stroke
grestore
0.549 0.337 0.294 setrgbcolor
gsave
390.6 271.8 77.2 45.29 clipbox
77.2 313.394612 m
116.416867 313.291023 l
130.422892 313.063425 l
141.627711 312.684549 l
150.031325 312.231708 l
158.43494 311.589043 l
166.838554 310.696144 l
172.440964 309.865052 l
175.242169 309.397931 l
180.844578 308.130278 l
186.446988 306.842338 l
194.850602 304.535549 l
200.453012 302.63568 l
203.254217 301.610027 l
208.856627 299.246098 l
214.459036 296.595509 l
220.061446 293.528788 l
222.862651 291.907003 l
231.266265 286.170887 l
236.868675 282.003021 l
242.471084 277.427605 l
245.272289 274.922916 l
248.073494 272.254524 l
253.675904 266.502897 l
259.278313 260.12508 l
262.079518 256.778991 l
270.483133 246.024009 l
278.886747 234.511947 l
287.290361 222.446195 l
301.296386 201.384004 l
323.706024 166.151702 l
332.109639 152.631936 l
348.916867 125.14089 l
354.519277 115.729261 l
360.121687 106.341844 l
376.928916 77.636814 l
393.736145 46.847489 l
396.537349 41.459979 l
404.940964 24.184759 l
407.742169 18.037745 l
410.543373 11.599898 l
415.700334 -1 l
415.700334 -1 l
stroke
grestore
0.890 0.467 0.761 setrgbcolor
gsave
390.6 271.8 77.2 45.29 clipbox
77.2 313.394612 m
108.013253 313.292334 l
119.218072 313.093068 l
127.621687 312.811299 l
138.826506 312.079475 l
147.23012 311.108192 l
152.83253 310.236829 l
155.633735 309.742411 l
164.037349 307.774406 l
166.838554 307.052173 l
175.242169 303.999082 l
178.043373 302.900941 l
180.844578 301.519201 l
183.645783 300.320946 l
186.446988 298.753048 l
189.248193 297.345007 l
194.850602 294.06173 l
206.055422 286.641331 l
208.856627 284.577599 l
211.657831 282.708539 l
217.260241 278.350357 l
236.868675 263.391714 l
239.66988 261.091959 l
250.874699 250.59907 l
256.477108 244.840204 l
262.079518 238.781484 l
267.681928 232.35872 l
270.483133 229.172667 l
276.085542 222.351162 l
281.687952 215.612643 l
301.296386 190.431725 l
320.904819 164.033792 l
326.507229 156.354884 l
329.308434 152.513345 l
334.910843 144.560446 l
340.513253 136.665398 l
354.519277 116.776838 l
357.320482 112.868939 l
362.922892 104.740134 l
385.33253 72.428658 l
402.139759 47.356825 l
410.543373 34.231671 l
418.946988 20.783461 l
424.549398 11.433077 l
431.652327 -1 l
431.652327 -1 l
stroke
grestore
0.498 setgray
gsave
390.6 271.8 77.2 45.29 clipbox
77.2 313.394612 m
127.621687 313.294484 l
138.826506 313.060484 l
147.23012 312.67607 l
152.83253 312.233875 l
158.43494 311.561412 l
164.037349 310.653971 l
166.838554 310.053952 l
172.440964 308.536868 l
178.043373 306.541846 l
183.645783 304.148396 l
186.446988 302.7658 l
192.049398 299.658273 l
197.651807 295.939412 l
203.254217 291.89798 l
214.459036 282.495534 l
217.260241 279.827764 l
222.862651 275.094403 l
228.46506 269.842159 l
231.266265 267.482632 l
239.66988 259.511315 l
248.073494 250.926309 l
259.278313 238.700014 l
267.681928 228.990878 l
281.687952 212.118606 l
287.290361 205.207362 l
292.892771 198.075082 l
309.7 176.412191 l
329.308434 150.185533 l
346.115663 126.919921 l
351.718072 119.090539 l
376.928916 83.83524 l
382.531325 75.763253 l
388.133735 67.828666 l
393.736145 59.828825 l
399.338554 51.647784 l
407.742169 39.250509 l
418.946988 22.134457 l
424.549398 13.221366 l
433.222524 -1 l
433.222524 -1 l
stroke
grestore
0.737 0.741 0.133 setrgbcolor
gsave
390.6 271.8 77.2 45.29 clipbox
77.2 313.394612 m
147.23012 313.290075 l
161.236145 313.067474 l
169.639759 312.782416 l
178.043373 312.315353 l
186.446988 311.545445 l
192.049398 310.797389 l
197.651807 309.809831 l
200.453012 309.191951 l
206.055422 307.648474 l
211.657831 305.686466 l
217.260241 303.014952 l
220.061446 301.447358 l
222.862651 299.717039 l
225.663855 297.766084 l
231.266265 293.292155 l
236.868675 288.125557 l
239.66988 285.375143 l
242.471084 282.381104 l
253.675904 269.578644 l
262.079518 259.313654 l
267.681928 252.189043 l
270.483133 248.725496 l
276.085542 241.285021 l
287.290361 226.627843 l
312.501205 192.723115 l
323.706024 177.4106 l
329.308434 169.881962 l
343.314458 150.564428 l
357.320482 131.489847 l
362.922892 123.68585 l
382.531325 96.414417 l
390.93494 84.456512 l
399.338554 72.257262 l
404.940964 63.952146 l
418.946988 42.456733 l
427.350602 28.914051 l
432.953012 19.60266 l
438.555422 10.104411 l
444.157831 0.466339 l
444.973132 -1 l
444.973132 -1 l
stroke
grestore
0.090 0.745 0.812 setrgbcolor
gsave
390.6 271.8 77.2 45.29 clipbox
77.2 313.394612 m
130.422892 313.300474 l
147.23012 313.084367 l
158.43494 312.710623 l
166.838554 312.203182 l
175.242169 311.37835 l
186.446988 309.699576 l
194.850602 307.985469 l
200.453012 306.450275 l
203.254217 305.622127 l
208.856627 303.525277 l
211.657831 302.38437 l
214.459036 300.98936 l
220.061446 297.743609 l
222.862651 295.929424 l
225.663855 293.763702 l
231.266265 289.006233 l
234.06747 286.305148 l
242.471084 277.568107 l
248.073494 271.074725 l
250.874699 267.918673 l
270.483133 244.128795 l
284.489157 226.782107 l
292.892771 216.439786 l
304.09759 202.58934 l
329.308434 171.449671 l
340.513253 157.387464 l
362.922892 128.890907 l
376.928916 110.520416 l
388.133735 95.14671 l
399.338554 79.186603 l
407.742169 66.705217 l
416.145783 53.748374 l
421.748193 44.730026 l
430.151807 30.580834 l
435.754217 20.891092 l
444.157831 5.531827 l
447.496693 -1 l
447.496693 -1 l
stroke
grestore
0.122 0.467 0.706 setrgbcolor
gsave
390.6 271.8 77.2 45.29 clipbox
77.2 313.394612 m
102.410843 313.303429 l
113.615663 313.087526 l
122.019277 312.801715 l
130.422892 312.265729 l
136.025301 311.790906 l
138.826506 311.552436 l
150.031325 310.018027 l
161.236145 307.899917 l
164.037349 307.183758 l
166.838554 306.63624 l
169.639759 305.770837 l
172.440964 305.100979 l
175.242169 304.037493 l
178.043373 303.175718 l
180.844578 301.881045 l
183.645783 300.921166 l
186.446988 299.418891 l
189.248193 298.177791 l
194.850602 295.035966 l
203.254217 288.861392 l
206.055422 286.419847 l
208.856627 283.625177 l
211.657831 281.225841 l
217.260241 274.774191 l
220.061446 271.823879 l
222.862651 269.160451 l
225.663855 265.872054 l
231.266265 259.838223 l
234.06747 256.341582 l
239.66988 249.597872 l
245.272289 241.651669 l
248.073494 237.710078 l
256.477108 225.027283 l
262.079518 215.857796 l
264.880723 210.992592 l
267.681928 206.392149 l
278.886747 186.373461 l
287.290361 170.626147 l
292.892771 159.646305 l
298.495181 148.975906 l
326.507229 92.683256 l
329.308434 86.948563 l
334.910843 74.941078 l
343.314458 56.795863 l
351.718072 38.328033 l
362.922892 12.793097 l
368.868803 -1 l
368.868803 -1 l
stroke
grestore
1.000 0.498 0.055 setrgbcolor
gsave
390.6 271.8 77.2 45.29 clipbox
77.2 313.394612 m
130.422892 313.297929 l
141.627711 313.057331 l
147.23012 312.814556 l
152.83253 312.400501 l
158.43494 311.753369 l
161.236145 311.330338 l
166.838554 310.099733 l
169.639759 309.34095 l
172.440964 308.415772 l
178.043373 306.138846 l
183.645783 303.252019 l
186.446988 301.741573 l
194.850602 296.102995 l
197.651807 294.025648 l
200.453012 291.725446 l
203.254217 289.576228 l
211.657831 281.691613 l
214.459036 278.658637 l
217.260241 275.358585 l
222.862651 269.751757 l
228.46506 262.556772 l
231.266265 259.179869 l
236.868675 250.888923 l
242.471084 242.284722 l
253.675904 223.045533 l
262.079518 207.661633 l
270.483133 191.519717 l
287.290361 158.04085 l
290.091566 152.118431 l
292.892771 146.566972 l
306.898795 117.697477 l
326.507229 76.99941 l
354.519277 18.631474 l
362.922892 1.975417 l
364.459481 -1 l
364.459481 -1 l
stroke
grestore
0.173 0.627 0.173 setrgbcolor
gsave
390.6 271.8 77.2 45.29 clipbox
77.2 313.394612 m
96.808434 313.308583 l
105.212048 313.139212 l
116.416867 312.66064 l
127.621687 311.767748 l
138.826506 310.304258 l
150.031325 308.213311 l
164.037349 305.043885 l
175.242169 302.54902 l
189.248193 299.544811 l
194.850602 297.979627 l
200.453012 296.10412 l
208.856627 292.586748 l
211.657831 291.300856 l
217.260241 288.295973 l
222.862651 284.992554 l
231.266265 279.406991 l
234.06747 277.41592 l
242.471084 270.440285 l
250.874699 262.526938 l
262.079518 250.45017 l
264.880723 247.037148 l
270.483133 240.761771 l
276.085542 233.737696 l
281.687952 226.904774 l
287.290361 219.774441 l
290.091566 216.186214 l
295.693976 208.777716 l
301.296386 201.42764 l
306.898795 193.880303 l
312.501205 186.33785 l
315.30241 182.389393 l
318.103614 178.737221 l
326.507229 167.110889 l
329.308434 163.303503 l
334.910843 155.421293 l
340.513253 147.621087 l
351.718072 132.053468 l
388.133735 81.449743 l
402.139759 61.455798 l
410.543373 49.00507 l
418.946988 36.334115 l
427.350602 23.14607 l
435.754217 9.55377 l
442.087982 -1 l
442.087982 -1 l
stroke
grestore
0.839 0.153 0.157 setrgbcolor
gsave
390.6 271.8 77.2 45.29 clipbox
77.2 313.394612 m
127.621687 313.297907 l
144.428916 312.991151 l
155.633735 312.522138 l
166.838554 311.750479 l
175.242169 310.830753 l
180.844578 310.039628 l
186.446988 309.080591 l
192.049398 307.92266 l
197.651807 306.429756 l
200.453012 305.595794 l
208.856627 302.626461 l
211.657831 301.496005 l
217.260241 298.863752 l
222.862651 295.973654 l
231.266265 291.131384 l
234.06747 289.313277 l
242.471084 283.070235 l
248.073494 278.012087 l
250.874699 275.697832 l
262.079518 264.171295 l
264.880723 260.892715 l
267.681928 257.830022 l
270.483133 254.978527 l
276.085542 248.120281 l
278.886747 244.965677 l
290.091566 231.450216 l
295.693976 224.301635 l
298.495181 221.015123 l
306.898795 210.181145 l
309.7 206.751153 l
315.30241 199.30903 l
318.103614 195.925895 l
323.706024 188.432009 l
329.308434 181.288849 l
334.910843 173.737506 l
337.712048 170.177259 l
343.314458 162.58452 l
348.916867 155.262373 l
354.519277 147.729536 l
357.320482 144.134655 l
362.922892 136.545325 l
379.73012 114.096866 l
396.537349 91.373737 l
402.139759 83.461364 l
407.742169 75.529121 l
421.748193 54.97584 l
427.350602 46.371639 l
435.754217 33.149199 l
441.356627 24.028964 l
444.157831 19.527487 l
449.760241 9.737843 l
455.362651 0.018273 l
455.930942 -1 l
455.930942 -1 l
stroke
grestore
0.580 0.404 0.741 setrgbcolor
gsave
390.6 271.8 77.2 45.29 clipbox
77.2 313.394612 m
96.808434 313.311803 l
105.212048 313.148454 l
116.416867 312.68666 l
127.621687 311.830532 l
138.826506 310.423457 l
150.031325 308.418154 l
166.838554 305.033861 l
172.440964 304.118429 l
186.446988 302.298775 l
189.248193 301.808166 l
192.049398 301.190015 l
194.850602 300.427262 l
200.453012 298.53011 l
206.055422 296.036704 l
211.657831 293.04279 l
217.260241 289.417715 l
222.862651 285.402229 l
231.266265 278.718642 l
234.06747 276.338224 l
236.868675 273.529896 l
239.66988 270.883847 l
242.471084 268.052995 l
248.073494 261.470153 l
250.874699 258.5084 l
256.477108 250.907938 l
262.079518 243.534452 l
264.880723 239.208705 l
267.681928 235.295854 l
270.483133 231.621202 l
276.085542 222.609736 l
278.886747 218.542807 l
281.687952 214.14903 l
284.489157 209.525086 l
290.091566 200.904455 l
292.892771 196.015866 l
295.693976 191.441715 l
298.495181 187.088321 l
315.30241 158.616165 l
318.103614 154.226276 l
323.706024 144.352365 l
329.308434 134.999105 l
334.910843 125.175486 l
337.712048 120.57529 l
343.314458 110.722004 l
348.916867 101.364444 l
354.519277 91.810902 l
357.320482 87.369747 l
360.121687 82.547603 l
371.326506 64.627531 l
382.531325 47.472847 l
413.344578 2.870825 l
416.050426 -1 l
416.050426 -1 l
stroke
grestore
0.800 setlinewidth
0 setlinejoin
[] 0 setdash
0.000 setgray
gsave
77.2 45.29375 m
77.2 317.09375 l
stroke
grestore
gsave
467.8 45.29375 m
467.8 317.09375 l
stroke
grestore
gsave
77.2 45.29375 m
467.8 45.29375 l
stroke
grestore
gsave
77.2 317.09375 m
467.8 317.09375 l
stroke
grestore
1.000 setlinewidth
0 setlinecap
0.800 setgray
gsave
84.2 50.29375 m
163.934375 50.29375 l
165.267708 50.29375 165.934375 50.960417 165.934375 52.29375 c
165.934375 271.371875 l
165.934375 272.705208 165.267708 273.371875 163.934375 273.371875 c
84.2 273.371875 l
82.866667 273.371875 82.2 272.705208 82.2 271.371875 c
82.2 52.29375 l
82.2 50.960417 82.866667 50.29375 84.2 50.29375 c
cl
gsave
1.000 setgray
fill
grestore
stroke
grestore
3.000 setlinewidth
1 setlinejoin
2 setlinecap
[] 0 setdash
0.122 0.467 0.706 setrgbcolor
gsave
86.2 265.278125 m
106.2 265.278125 l
stroke
grestore
0.000 setgray
/DejaVuSans findfont
10.000 scalefont
setfont
gsave
114.200000 261.778125 translate
0.000000 rotate
0.000000 0.000000 m /o glyphshow
6.118164 0.000000 m /r glyphshow
10.229492 0.000000 m /b glyphshow
16.577148 0.000000 m /period glyphshow
19.755859 0.000000 m /space glyphshow
22.934570 0.000000 m /one glyphshow
29.296875 0.000000 m /space glyphshow
32.475586 0.000000 m /a glyphshow
38.603516 0.000000 m /quotesingle glyphshow
grestore
1.000 0.498 0.055 setrgbcolor
gsave
86.2 250.60625 m
106.2 250.60625 l
stroke
grestore
0.000 setgray
gsave
114.200000 247.106250 translate
0.000000 rotate
0.000000 0.000000 m /o glyphshow
6.118164 0.000000 m /r glyphshow
10.229492 0.000000 m /b glyphshow
16.577148 0.000000 m /period glyphshow
19.755859 0.000000 m /space glyphshow
22.934570 0.000000 m /two glyphshow
29.296875 0.000000 m /space glyphshow
32.475586 0.000000 m /a glyphshow
38.603516 0.000000 m /quotesingle glyphshow
grestore
0.173 0.627 0.173 setrgbcolor
gsave
86.2 235.934375 m
106.2 235.934375 l
stroke
grestore
0.000 setgray
gsave
114.200000 232.434375 translate
0.000000 rotate
0.000000 0.000000 m /o glyphshow
6.118164 0.000000 m /r glyphshow
10.229492 0.000000 m /b glyphshow
16.577148 0.000000 m /period glyphshow
19.755859 0.000000 m /space glyphshow
22.934570 0.000000 m /three glyphshow
29.296875 0.000000 m /space glyphshow
32.475586 0.000000 m /a glyphshow
38.603516 0.000000 m /quotesingle glyphshow
grestore
0.839 0.153 0.157 setrgbcolor
gsave
86.2 221.2625 m
106.2 221.2625 l
stroke
grestore
0.000 setgray
gsave
114.200000 217.762500 translate
0.000000 rotate
0.000000 0.000000 m /o glyphshow
6.118164 0.000000 m /r glyphshow
10.229492 0.000000 m /b glyphshow
16.577148 0.000000 m /period glyphshow
19.755859 0.000000 m /space glyphshow
22.934570 0.000000 m /four glyphshow
29.296875 0.000000 m /space glyphshow
32.475586 0.000000 m /a glyphshow
38.603516 0.000000 m /quotesingle glyphshow
grestore
0.580 0.404 0.741 setrgbcolor
gsave
86.2 206.590625 m
106.2 206.590625 l
stroke
grestore
0.000 setgray
gsave
114.200000 203.090625 translate
0.000000 rotate
0.000000 0.000000 m /o glyphshow
6.118164 0.000000 m /r glyphshow
10.229492 0.000000 m /b glyphshow
16.577148 0.000000 m /period glyphshow
19.755859 0.000000 m /space glyphshow
22.934570 0.000000 m /five glyphshow
29.296875 0.000000 m /space glyphshow
32.475586 0.000000 m /a glyphshow
38.603516 0.000000 m /quotesingle glyphshow
grestore
0.549 0.337 0.294 setrgbcolor
gsave
86.2 191.91875 m
106.2 191.91875 l
stroke
grestore
0.000 setgray
gsave
114.200000 188.418750 translate
0.000000 rotate
0.000000 0.000000 m /o glyphshow
6.118164 0.000000 m /r glyphshow
10.229492 0.000000 m /b glyphshow
16.577148 0.000000 m /period glyphshow
19.755859 0.000000 m /space glyphshow
22.934570 0.000000 m /six glyphshow
29.296875 0.000000 m /space glyphshow
32.475586 0.000000 m /a glyphshow
38.603516 0.000000 m /quotesingle glyphshow
grestore
0.890 0.467 0.761 setrgbcolor
gsave
86.2 177.246875 m
106.2 177.246875 l
stroke
grestore
0.000 setgray
gsave
114.200000 173.746875 translate
0.000000 rotate
0.000000 0.000000 m /o glyphshow
6.118164 0.000000 m /r glyphshow
10.229492 0.000000 m /b glyphshow
16.577148 0.000000 m /period glyphshow
19.755859 0.000000 m /space glyphshow
22.934570 0.000000 m /seven glyphshow
29.296875 0.000000 m /space glyphshow
32.475586 0.000000 m /a glyphshow
38.603516 0.000000 m /quotesingle glyphshow
grestore
0.498 setgray
gsave
86.2 162.575 m
106.2 162.575 l
stroke
grestore
0.000 setgray
gsave
114.200000 159.075000 translate
0.000000 rotate
0.000000 0.000000 m /o glyphshow
6.118164 0.000000 m /r glyphshow
10.229492 0.000000 m /b glyphshow
16.577148 0.000000 m /period glyphshow
19.755859 0.000000 m /space glyphshow
22.934570 0.000000 m /eight glyphshow
29.296875 0.000000 m /space glyphshow
32.475586 0.000000 m /a glyphshow
38.603516 0.000000 m /quotesingle glyphshow
grestore
0.737 0.741 0.133 setrgbcolor
gsave
86.2 147.903125 m
106.2 147.903125 l
stroke
grestore
0.000 setgray
gsave
114.200000 144.403125 translate
0.000000 rotate
0.000000 0.000000 m /o glyphshow
6.118164 0.000000 m /r glyphshow
10.229492 0.000000 m /b glyphshow
16.577148 0.000000 m /period glyphshow
19.755859 0.000000 m /space glyphshow
22.934570 0.000000 m /nine glyphshow
29.296875 0.000000 m /space glyphshow
32.475586 0.000000 m /a glyphshow
38.603516 0.000000 m /quotesingle glyphshow
grestore
0.090 0.745 0.812 setrgbcolor
gsave
86.2 133.23125 m
106.2 133.23125 l
stroke
grestore
0.000 setgray
gsave
114.200000 129.731250 translate
0.000000 rotate
0.000000 0.000000 m /o glyphshow
6.118164 0.000000 m /r glyphshow
10.229492 0.000000 m /b glyphshow
16.577148 0.000000 m /period glyphshow
19.755859 0.000000 m /space glyphshow
22.934570 0.000000 m /one glyphshow
29.296875 0.000000 m /zero glyphshow
35.659180 0.000000 m /space glyphshow
38.837891 0.000000 m /a glyphshow
44.965820 0.000000 m /quotesingle glyphshow
grestore
0.122 0.467 0.706 setrgbcolor
gsave
86.2 118.559375 m
106.2 118.559375 l
stroke
grestore
0.000 setgray
gsave
114.200000 115.059375 translate
0.000000 rotate
0.000000 0.000000 m /o glyphshow
6.118164 0.000000 m /r glyphshow
10.229492 0.000000 m /b glyphshow
16.577148 0.000000 m /period glyphshow
19.755859 0.000000 m /space glyphshow
22.934570 0.000000 m /one glyphshow
29.296875 0.000000 m /one glyphshow
35.659180 0.000000 m /space glyphshow
38.837891 0.000000 m /a glyphshow
44.965820 0.000000 m /quotesingle glyphshow
grestore
1.000 0.498 0.055 setrgbcolor
gsave
86.2 103.8875 m
106.2 103.8875 l
stroke
grestore
0.000 setgray
gsave
114.200000 100.387500 translate
0.000000 rotate
0.000000 0.000000 m /o glyphshow
6.118164 0.000000 m /r glyphshow
10.229492 0.000000 m /b glyphshow
16.577148 0.000000 m /period glyphshow
19.755859 0.000000 m /space glyphshow
22.934570 0.000000 m /one glyphshow
29.296875 0.000000 m /two glyphshow
35.659180 0.000000 m /space glyphshow
38.837891 0.000000 m /a glyphshow
44.965820 0.000000 m /quotesingle glyphshow
grestore
0.173 0.627 0.173 setrgbcolor
gsave
86.2 89.215625 m
106.2 89.215625 l
stroke
grestore
0.000 setgray
gsave
114.200000 85.715625 translate
0.000000 rotate
0.000000 0.000000 m /o glyphshow
6.118164 0.000000 m /r glyphshow
10.229492 0.000000 m /b glyphshow
16.577148 0.000000 m /period glyphshow
19.755859 0.000000 m /space glyphshow
22.934570 0.000000 m /one glyphshow
29.296875 0.000000 m /space glyphshow
32.475586 0.000000 m /a glyphshow
38.603516 0.000000 m /quotesingle glyphshow
41.352539 0.000000 m /quotesingle glyphshow
grestore
0.839 0.153 0.157 setrgbcolor
gsave
86.2 74.54375 m
106.2 74.54375 l
stroke
grestore
0.000 setgray
gsave
114.200000 71.043750 translate
0.000000 rotate
0.000000 0.000000 m /o glyphshow
6.118164 0.000000 m /r glyphshow
10.229492 0.000000 m /b glyphshow
16.577148 0.000000 m /period glyphshow
19.755859 0.000000 m /space glyphshow
22.934570 0.000000 m /two glyphshow
29.296875 0.000000 m /space glyphshow
32.475586 0.000000 m /a glyphshow
38.603516 0.000000 m /quotesingle glyphshow
41.352539 0.000000 m /quotesingle glyphshow
grestore
0.580 0.404 0.741 setrgbcolor
gsave
86.2 59.871875 m
106.2 59.871875 l
stroke
grestore
0.000 setgray
gsave
114.200000 56.371875 translate
0.000000 rotate
0.000000 0.000000 m /o glyphshow
6.118164 0.000000 m /r glyphshow
10.229492 0.000000 m /b glyphshow
16.577148 0.000000 m /period glyphshow
19.755859 0.000000 m /space glyphshow
22.934570 0.000000 m /three glyphshow
29.296875 0.000000 m /space glyphshow
32.475586 0.000000 m /a glyphshow
38.603516 0.000000 m /quotesingle glyphshow
41.352539 0.000000 m /quotesingle glyphshow
grestore
/DejaVuSans findfont
12.000 scalefont
setfont
gsave
121.817188 343.968750 translate
0.000000 rotate
0.000000 0.000000 m /R glyphshow
8.337891 0.000000 m /a glyphshow
15.691406 0.000000 m /d glyphshow
23.308594 0.000000 m /i glyphshow
26.642578 0.000000 m /a glyphshow
33.996094 0.000000 m /l glyphshow
37.330078 0.000000 m /space glyphshow
41.144531 0.000000 m /b glyphshow
48.761719 0.000000 m /e glyphshow
56.144531 0.000000 m /h glyphshow
63.750000 0.000000 m /a glyphshow
71.103516 0.000000 m /v glyphshow
78.205078 0.000000 m /i glyphshow
81.539062 0.000000 m /o glyphshow
88.880859 0.000000 m /u glyphshow
96.486328 0.000000 m /r glyphshow
101.419922 0.000000 m /space glyphshow
105.234375 0.000000 m /o glyphshow
112.576172 0.000000 m /f glyphshow
116.800781 0.000000 m /space glyphshow
120.615234 0.000000 m /a glyphshow
127.968750 0.000000 m /n glyphshow
135.574219 0.000000 m /g glyphshow
143.191406 0.000000 m /u glyphshow
150.796875 0.000000 m /l glyphshow
154.130859 0.000000 m /a glyphshow
161.484375 0.000000 m /r glyphshow
166.417969 0.000000 m /y glyphshow
173.519531 0.000000 m /space glyphshow
177.333984 0.000000 m /i glyphshow
180.667969 0.000000 m /n glyphshow
188.273438 0.000000 m /t glyphshow
192.978516 0.000000 m /e glyphshow
200.361328 0.000000 m /g glyphshow
207.978516 0.000000 m /r glyphshow
212.912109 0.000000 m /a glyphshow
220.265625 0.000000 m /t glyphshow
224.970703 0.000000 m /e glyphshow
232.353516 0.000000 m /d glyphshow
239.970703 0.000000 m /space glyphshow
243.785156 0.000000 m /o glyphshow
251.126953 0.000000 m /r glyphshow
256.060547 0.000000 m /b glyphshow
263.677734 0.000000 m /i glyphshow
267.011719 0.000000 m /t glyphshow
271.716797 0.000000 m /a glyphshow
279.070312 0.000000 m /l glyphshow
282.404297 0.000000 m /s glyphshow
grestore

end
showpage
