%!PS-Adobe-3.0 EPSF-3.0
%%Title: /Users/markusklinker/Dropbox/XCHEM-Manual/pics/h.eps
%%Creator: matplotlib version 3.0.2, http://matplotlib.org/
%%CreationDate: Tue Mar 12 15:47:24 2019
%%Orientation: portrait
%%BoundingBox: 109 235 502 556
%%EndComments
%%BeginProlog
/mpldict 8 dict def
mpldict begin
/m { moveto } bind def
/l { lineto } bind def
/r { rlineto } bind def
/c { curveto } bind def
/cl { closepath } bind def
/box {
m
1 index 0 r
0 exch r
neg 0 r
cl
} bind def
/clipbox {
box
clip
newpath
} bind def
%!PS-Adobe-3.0 Resource-Font
%%Title: DejaVu Sans
%%Copyright: Copyright (c) 2003 by Bitstream, Inc. All Rights Reserved. Copyright (c) 2006 by Tavmjong Bah. All Rights Reserved. DejaVu changes are in public domain 
%%Creator: Converted from TrueType to type 3 by PPR
25 dict begin
/_d{bind def}bind def
/_m{moveto}_d
/_l{lineto}_d
/_cl{closepath eofill}_d
/_c{curveto}_d
/_sc{7 -1 roll{setcachedevice}{pop pop pop pop pop pop}ifelse}_d
/_e{exec}_d
/FontName /DejaVuSans def
/PaintType 0 def
/FontMatrix[.001 0 0 .001 0 0]def
/FontBBox[-1021 -463 1793 1232]def
/FontType 3 def
/Encoding [ /space /parenleft /parenright /period /zero /one /two /three /four /five /six /eight /equal /C /E /M /P /S /a /b /c /e /g /h /i /l /n /o /r /s /t /u /x /y ] def
/FontInfo 10 dict dup begin
/FamilyName (DejaVu Sans) def
/FullName (DejaVu Sans) def
/Notice (Copyright (c) 2003 by Bitstream, Inc. All Rights Reserved. Copyright (c) 2006 by Tavmjong Bah. All Rights Reserved. DejaVu changes are in public domain ) def
/Weight (Book) def
/Version (Version 2.35) def
/ItalicAngle 0.0 def
/isFixedPitch false def
/UnderlinePosition -130 def
/UnderlineThickness 90 def
end readonly def
/CharStrings 35 dict dup begin
/.notdef 0 def
/space{318 0 0 0 0 0 _sc
}_d
/parenleft{390 0 86 -131 310 759 _sc
310 759 _m
266 683 234 609 213 536 _c
191 463 181 389 181 314 _c
181 238 191 164 213 91 _c
234 17 266 -56 310 -131 _c
232 -131 _l
183 -54 146 20 122 94 _c
98 168 86 241 86 314 _c
86 386 98 459 122 533 _c
146 607 182 682 232 759 _c
310 759 _l
_cl}_d
/parenright{390 0 80 -131 304 759 _sc
80 759 _m
158 759 _l
206 682 243 607 267 533 _c
291 459 304 386 304 314 _c
304 241 291 168 267 94 _c
243 20 206 -54 158 -131 _c
80 -131 _l
123 -56 155 17 177 91 _c
198 164 209 238 209 314 _c
209 389 198 463 177 536 _c
155 609 123 683 80 759 _c
_cl}_d
/period{318 0 107 0 210 124 _sc
107 124 _m
210 124 _l
210 0 _l
107 0 _l
107 124 _l
_cl}_d
/zero{636 0 66 -13 570 742 _sc
318 664 _m
267 664 229 639 203 589 _c
177 539 165 464 165 364 _c
165 264 177 189 203 139 _c
229 89 267 64 318 64 _c
369 64 407 89 433 139 _c
458 189 471 264 471 364 _c
471 464 458 539 433 589 _c
407 639 369 664 318 664 _c
318 742 _m
399 742 461 709 505 645 _c
548 580 570 486 570 364 _c
570 241 548 147 505 83 _c
461 19 399 -13 318 -13 _c
236 -13 173 19 130 83 _c
87 147 66 241 66 364 _c
66 486 87 580 130 645 _c
173 709 236 742 318 742 _c
_cl}_d
/one{636 0 110 0 544 729 _sc
124 83 _m
285 83 _l
285 639 _l
110 604 _l
110 694 _l
284 729 _l
383 729 _l
383 83 _l
544 83 _l
544 0 _l
124 0 _l
124 83 _l
_cl}_d
/two{{636 0 73 0 536 742 _sc
192 83 _m
536 83 _l
536 0 _l
73 0 _l
73 83 _l
110 121 161 173 226 239 _c
290 304 331 346 348 365 _c
380 400 402 430 414 455 _c
426 479 433 504 433 528 _c
433 566 419 598 392 622 _c
365 646 330 659 286 659 _c
255 659 222 653 188 643 _c
154 632 117 616 78 594 _c
78 694 _l
118 710 155 722 189 730 _c
223 738 255 742 284 742 _c
}_e{359 742 419 723 464 685 _c
509 647 532 597 532 534 _c
532 504 526 475 515 449 _c
504 422 484 390 454 354 _c
446 344 420 317 376 272 _c
332 227 271 164 192 83 _c
_cl}_e}_d
/three{{636 0 76 -13 556 742 _sc
406 393 _m
453 383 490 362 516 330 _c
542 298 556 258 556 212 _c
556 140 531 84 482 45 _c
432 6 362 -13 271 -13 _c
240 -13 208 -10 176 -4 _c
144 1 110 10 76 22 _c
76 117 _l
103 101 133 89 166 81 _c
198 73 232 69 268 69 _c
330 69 377 81 409 105 _c
441 129 458 165 458 212 _c
458 254 443 288 413 312 _c
383 336 341 349 287 349 _c
}_e{202 349 _l
202 430 _l
291 430 _l
339 430 376 439 402 459 _c
428 478 441 506 441 543 _c
441 580 427 609 401 629 _c
374 649 336 659 287 659 _c
260 659 231 656 200 650 _c
169 644 135 635 98 623 _c
98 711 _l
135 721 170 729 203 734 _c
235 739 266 742 296 742 _c
370 742 429 725 473 691 _c
517 657 539 611 539 553 _c
539 513 527 479 504 451 _c
481 423 448 403 406 393 _c
_cl}_e}_d
/four{636 0 49 0 580 729 _sc
378 643 _m
129 254 _l
378 254 _l
378 643 _l
352 729 _m
476 729 _l
476 254 _l
580 254 _l
580 172 _l
476 172 _l
476 0 _l
378 0 _l
378 172 _l
49 172 _l
49 267 _l
352 729 _l
_cl}_d
/five{{636 0 77 -13 549 729 _sc
108 729 _m
495 729 _l
495 646 _l
198 646 _l
198 467 _l
212 472 227 476 241 478 _c
255 480 270 482 284 482 _c
365 482 429 459 477 415 _c
525 370 549 310 549 234 _c
549 155 524 94 475 51 _c
426 8 357 -13 269 -13 _c
238 -13 207 -10 175 -6 _c
143 -1 111 6 77 17 _c
77 116 _l
106 100 136 88 168 80 _c
199 72 232 69 267 69 _c
}_e{323 69 368 83 401 113 _c
433 143 450 183 450 234 _c
450 284 433 324 401 354 _c
368 384 323 399 267 399 _c
241 399 214 396 188 390 _c
162 384 135 375 108 363 _c
108 729 _l
_cl}_e}_d
/six{{636 0 70 -13 573 742 _sc
330 404 _m
286 404 251 388 225 358 _c
199 328 186 286 186 234 _c
186 181 199 139 225 109 _c
251 79 286 64 330 64 _c
374 64 409 79 435 109 _c
461 139 474 181 474 234 _c
474 286 461 328 435 358 _c
409 388 374 404 330 404 _c
526 713 _m
526 623 _l
501 635 476 644 451 650 _c
425 656 400 659 376 659 _c
310 659 260 637 226 593 _c
}_e{192 549 172 482 168 394 _c
187 422 211 444 240 459 _c
269 474 301 482 336 482 _c
409 482 467 459 509 415 _c
551 371 573 310 573 234 _c
573 159 550 99 506 54 _c
462 9 403 -13 330 -13 _c
246 -13 181 19 137 83 _c
92 147 70 241 70 364 _c
70 479 97 571 152 639 _c
206 707 280 742 372 742 _c
396 742 421 739 447 735 _c
472 730 498 723 526 713 _c
_cl}_e}_d
/eight{{636 0 68 -13 568 742 _sc
318 346 _m
271 346 234 333 207 308 _c
180 283 167 249 167 205 _c
167 161 180 126 207 101 _c
234 76 271 64 318 64 _c
364 64 401 76 428 102 _c
455 127 469 161 469 205 _c
469 249 455 283 429 308 _c
402 333 365 346 318 346 _c
219 388 _m
177 398 144 418 120 447 _c
96 476 85 511 85 553 _c
85 611 105 657 147 691 _c
188 725 245 742 318 742 _c
}_e{390 742 447 725 489 691 _c
530 657 551 611 551 553 _c
551 511 539 476 515 447 _c
491 418 459 398 417 388 _c
464 377 501 355 528 323 _c
554 291 568 251 568 205 _c
568 134 546 80 503 43 _c
459 5 398 -13 318 -13 _c
237 -13 175 5 132 43 _c
89 80 68 134 68 205 _c
68 251 81 291 108 323 _c
134 355 171 377 219 388 _c
183 544 _m
183 506 194 476 218 455 _c
}_e{242 434 275 424 318 424 _c
360 424 393 434 417 455 _c
441 476 453 506 453 544 _c
453 582 441 611 417 632 _c
393 653 360 664 318 664 _c
275 664 242 653 218 632 _c
194 611 183 582 183 544 _c
_cl}_e}_d
/equal{838 0 106 172 732 454 _sc
106 454 _m
732 454 _l
732 372 _l
106 372 _l
106 454 _l
106 255 _m
732 255 _l
732 172 _l
106 172 _l
106 255 _l
_cl}_d
/C{{698 0 56 -13 644 742 _sc
644 673 _m
644 569 _l
610 599 575 622 537 638 _c
499 653 460 661 418 661 _c
334 661 270 635 226 584 _c
182 533 160 460 160 364 _c
160 268 182 194 226 143 _c
270 92 334 67 418 67 _c
460 67 499 74 537 90 _c
575 105 610 128 644 159 _c
644 56 _l
609 32 572 15 534 4 _c
496 -7 455 -13 412 -13 _c
302 -13 215 20 151 87 _c
}_e{87 154 56 246 56 364 _c
56 481 87 573 151 641 _c
215 708 302 742 412 742 _c
456 742 497 736 535 725 _c
573 713 610 696 644 673 _c
_cl}_e}_d
/E{632 0 98 0 568 729 _sc
98 729 _m
559 729 _l
559 646 _l
197 646 _l
197 430 _l
544 430 _l
544 347 _l
197 347 _l
197 83 _l
568 83 _l
568 0 _l
98 0 _l
98 729 _l
_cl}_d
/M{863 0 98 0 765 729 _sc
98 729 _m
245 729 _l
431 233 _l
618 729 _l
765 729 _l
765 0 _l
669 0 _l
669 640 _l
481 140 _l
382 140 _l
194 640 _l
194 0 _l
98 0 _l
98 729 _l
_cl}_d
/P{603 0 98 0 569 729 _sc
197 648 _m
197 374 _l
321 374 _l
367 374 402 385 427 409 _c
452 433 465 467 465 511 _c
465 555 452 588 427 612 _c
402 636 367 648 321 648 _c
197 648 _l
98 729 _m
321 729 _l
402 729 464 710 506 673 _c
548 636 569 582 569 511 _c
569 439 548 384 506 348 _c
464 311 402 293 321 293 _c
197 293 _l
197 0 _l
98 0 _l
98 729 _l
_cl}_d
/S{{635 0 66 -13 579 742 _sc
535 705 _m
535 609 _l
497 627 462 640 429 649 _c
395 657 363 662 333 662 _c
279 662 237 651 208 631 _c
179 610 165 580 165 542 _c
165 510 174 485 194 469 _c
213 452 250 439 304 429 _c
364 417 _l
437 403 491 378 526 343 _c
561 307 579 260 579 201 _c
579 130 555 77 508 41 _c
460 5 391 -13 300 -13 _c
265 -13 228 -9 189 -2 _c
}_e{150 5 110 16 69 32 _c
69 134 _l
109 111 148 94 186 83 _c
224 71 262 66 300 66 _c
356 66 399 77 430 99 _c
460 121 476 152 476 194 _c
476 230 465 258 443 278 _c
421 298 385 313 335 323 _c
275 335 _l
201 349 148 372 115 404 _c
82 435 66 478 66 534 _c
66 598 88 649 134 686 _c
179 723 242 742 322 742 _c
356 742 390 739 426 733 _c
461 727 497 717 535 705 _c
}_e{_cl}_e}_d
/a{{613 0 60 -13 522 560 _sc
343 275 _m
270 275 220 266 192 250 _c
164 233 150 205 150 165 _c
150 133 160 107 181 89 _c
202 70 231 61 267 61 _c
317 61 357 78 387 114 _c
417 149 432 196 432 255 _c
432 275 _l
343 275 _l
522 312 _m
522 0 _l
432 0 _l
432 83 _l
411 49 385 25 355 10 _c
325 -5 287 -13 243 -13 _c
187 -13 142 2 109 33 _c
76 64 60 106 60 159 _c
}_e{60 220 80 266 122 298 _c
163 329 224 345 306 345 _c
432 345 _l
432 354 _l
432 395 418 427 391 450 _c
364 472 326 484 277 484 _c
245 484 215 480 185 472 _c
155 464 127 453 100 439 _c
100 522 _l
132 534 164 544 195 550 _c
226 556 256 560 286 560 _c
365 560 424 539 463 498 _c
502 457 522 395 522 312 _c
_cl}_e}_d
/b{{635 0 91 -13 580 760 _sc
487 273 _m
487 339 473 390 446 428 _c
418 466 381 485 334 485 _c
286 485 249 466 222 428 _c
194 390 181 339 181 273 _c
181 207 194 155 222 117 _c
249 79 286 61 334 61 _c
381 61 418 79 446 117 _c
473 155 487 207 487 273 _c
181 464 _m
199 496 223 520 252 536 _c
281 552 316 560 356 560 _c
422 560 476 533 518 481 _c
559 428 580 359 580 273 _c
}_e{580 187 559 117 518 65 _c
476 13 422 -13 356 -13 _c
316 -13 281 -5 252 10 _c
223 25 199 49 181 82 _c
181 0 _l
91 0 _l
91 760 _l
181 760 _l
181 464 _l
_cl}_e}_d
/c{{550 0 55 -13 488 560 _sc
488 526 _m
488 442 _l
462 456 437 466 411 473 _c
385 480 360 484 334 484 _c
276 484 230 465 198 428 _c
166 391 150 339 150 273 _c
150 206 166 154 198 117 _c
230 80 276 62 334 62 _c
360 62 385 65 411 72 _c
437 79 462 90 488 104 _c
488 21 _l
462 9 436 0 410 -5 _c
383 -10 354 -13 324 -13 _c
242 -13 176 12 128 64 _c
}_e{79 115 55 185 55 273 _c
55 362 79 432 128 483 _c
177 534 244 560 330 560 _c
358 560 385 557 411 551 _c
437 545 463 537 488 526 _c
_cl}_e}_d
/e{{615 0 55 -13 562 560 _sc
562 296 _m
562 252 _l
149 252 _l
153 190 171 142 205 110 _c
238 78 284 62 344 62 _c
378 62 412 66 444 74 _c
476 82 509 95 541 113 _c
541 28 _l
509 14 476 3 442 -3 _c
408 -9 373 -13 339 -13 _c
251 -13 182 12 131 62 _c
80 112 55 181 55 268 _c
55 357 79 428 127 481 _c
175 533 241 560 323 560 _c
397 560 455 536 498 489 _c
}_e{540 441 562 377 562 296 _c
472 322 _m
471 371 457 410 431 440 _c
404 469 368 484 324 484 _c
274 484 234 469 204 441 _c
174 413 156 373 152 322 _c
472 322 _l
_cl}_e}_d
/g{{635 0 55 -207 544 560 _sc
454 280 _m
454 344 440 395 414 431 _c
387 467 349 485 301 485 _c
253 485 215 467 188 431 _c
161 395 148 344 148 280 _c
148 215 161 165 188 129 _c
215 93 253 75 301 75 _c
349 75 387 93 414 129 _c
440 165 454 215 454 280 _c
544 68 _m
544 -24 523 -93 482 -139 _c
440 -184 377 -207 292 -207 _c
260 -207 231 -204 203 -200 _c
175 -195 147 -188 121 -178 _c
}_e{121 -91 _l
147 -105 173 -115 199 -122 _c
225 -129 251 -133 278 -133 _c
336 -133 380 -117 410 -87 _c
439 -56 454 -10 454 52 _c
454 96 _l
435 64 411 40 382 24 _c
353 8 319 0 279 0 _c
211 0 157 25 116 76 _c
75 127 55 195 55 280 _c
55 364 75 432 116 483 _c
157 534 211 560 279 560 _c
319 560 353 552 382 536 _c
411 520 435 496 454 464 _c
454 547 _l
544 547 _l
}_e{544 68 _l
_cl}_e}_d
/h{634 0 91 0 549 760 _sc
549 330 _m
549 0 _l
459 0 _l
459 327 _l
459 379 448 417 428 443 _c
408 469 378 482 338 482 _c
289 482 251 466 223 435 _c
195 404 181 362 181 309 _c
181 0 _l
91 0 _l
91 760 _l
181 760 _l
181 462 _l
202 494 227 519 257 535 _c
286 551 320 560 358 560 _c
420 560 468 540 500 501 _c
532 462 549 405 549 330 _c
_cl}_d
/i{278 0 94 0 184 760 _sc
94 547 _m
184 547 _l
184 0 _l
94 0 _l
94 547 _l
94 760 _m
184 760 _l
184 646 _l
94 646 _l
94 760 _l
_cl}_d
/l{278 0 94 0 184 760 _sc
94 760 _m
184 760 _l
184 0 _l
94 0 _l
94 760 _l
_cl}_d
/n{634 0 91 0 549 560 _sc
549 330 _m
549 0 _l
459 0 _l
459 327 _l
459 379 448 417 428 443 _c
408 469 378 482 338 482 _c
289 482 251 466 223 435 _c
195 404 181 362 181 309 _c
181 0 _l
91 0 _l
91 547 _l
181 547 _l
181 462 _l
202 494 227 519 257 535 _c
286 551 320 560 358 560 _c
420 560 468 540 500 501 _c
532 462 549 405 549 330 _c
_cl}_d
/o{612 0 55 -13 557 560 _sc
306 484 _m
258 484 220 465 192 427 _c
164 389 150 338 150 273 _c
150 207 163 156 191 118 _c
219 80 257 62 306 62 _c
354 62 392 80 420 118 _c
448 156 462 207 462 273 _c
462 337 448 389 420 427 _c
392 465 354 484 306 484 _c
306 560 _m
384 560 445 534 490 484 _c
534 433 557 363 557 273 _c
557 183 534 113 490 63 _c
445 12 384 -13 306 -13 _c
227 -13 165 12 121 63 _c
77 113 55 183 55 273 _c
55 363 77 433 121 484 _c
165 534 227 560 306 560 _c
_cl}_d
/r{411 0 91 0 411 560 _sc
411 463 _m
401 469 390 473 378 476 _c
366 478 353 480 339 480 _c
288 480 249 463 222 430 _c
194 397 181 350 181 288 _c
181 0 _l
91 0 _l
91 547 _l
181 547 _l
181 462 _l
199 495 224 520 254 536 _c
284 552 321 560 365 560 _c
371 560 378 559 386 559 _c
393 558 401 557 411 555 _c
411 463 _l
_cl}_d
/s{{521 0 54 -13 472 560 _sc
443 531 _m
443 446 _l
417 458 391 468 364 475 _c
336 481 308 485 279 485 _c
234 485 200 478 178 464 _c
156 450 145 430 145 403 _c
145 382 153 366 169 354 _c
185 342 217 330 265 320 _c
296 313 _l
360 299 405 279 432 255 _c
458 230 472 195 472 151 _c
472 100 452 60 412 31 _c
372 1 316 -13 246 -13 _c
216 -13 186 -10 154 -5 _c
}_e{122 0 89 8 54 20 _c
54 113 _l
87 95 120 82 152 74 _c
184 65 216 61 248 61 _c
290 61 323 68 346 82 _c
368 96 380 117 380 144 _c
380 168 371 187 355 200 _c
339 213 303 226 247 238 _c
216 245 _l
160 257 119 275 95 299 _c
70 323 58 356 58 399 _c
58 450 76 490 112 518 _c
148 546 200 560 268 560 _c
301 560 332 557 362 552 _c
391 547 418 540 443 531 _c
}_e{_cl}_e}_d
/t{392 0 27 0 368 702 _sc
183 702 _m
183 547 _l
368 547 _l
368 477 _l
183 477 _l
183 180 _l
183 135 189 106 201 94 _c
213 81 238 75 276 75 _c
368 75 _l
368 0 _l
276 0 _l
206 0 158 13 132 39 _c
106 65 93 112 93 180 _c
93 477 _l
27 477 _l
27 547 _l
93 547 _l
93 702 _l
183 702 _l
_cl}_d
/u{634 0 85 -13 543 560 _sc
85 216 _m
85 547 _l
175 547 _l
175 219 _l
175 167 185 129 205 103 _c
225 77 255 64 296 64 _c
344 64 383 79 411 110 _c
439 141 453 183 453 237 _c
453 547 _l
543 547 _l
543 0 _l
453 0 _l
453 84 _l
431 50 405 26 377 10 _c
348 -5 315 -13 277 -13 _c
214 -13 166 6 134 45 _c
101 83 85 140 85 216 _c
311 560 _m
311 560 _l
_cl}_d
/x{592 0 29 0 559 547 _sc
549 547 _m
351 281 _l
559 0 _l
453 0 _l
294 215 _l
135 0 _l
29 0 _l
241 286 _l
47 547 _l
153 547 _l
298 352 _l
443 547 _l
549 547 _l
_cl}_d
/y{592 0 30 -207 562 547 _sc
322 -50 _m
296 -114 271 -157 247 -177 _c
223 -197 191 -207 151 -207 _c
79 -207 _l
79 -132 _l
132 -132 _l
156 -132 175 -126 189 -114 _c
203 -102 218 -75 235 -31 _c
251 9 _l
30 547 _l
125 547 _l
296 119 _l
467 547 _l
562 547 _l
322 -50 _l
_cl}_d
end readonly def

/BuildGlyph
 {exch begin
 CharStrings exch
 2 copy known not{pop /.notdef}if
 true 3 1 roll get exec
 end}_d

/BuildChar {
 1 index /Encoding get exch get
 1 index /BuildGlyph get exec
}_d

FontName currentdict end definefont pop
end
%%EndProlog
mpldict begin
109.931 235.83 translate
392.137 320.341 0 0 clipbox
gsave
0 0 m
392.1375 0 l
392.1375 320.340625 l
0 320.340625 l
cl
1.000 setgray
fill
grestore
gsave
43.778125 37.54375 m
378.578125 37.54375 l
378.578125 309.34375 l
43.778125 309.34375 l
cl
1.000 setgray
fill
grestore
0.800 setlinewidth
1 setlinejoin
0 setlinecap
[] 0 setdash
0.000 setgray
gsave
/o {
gsave
newpath
translate
0.8 setlinewidth
1 setlinejoin
0 setlinecap
0 0 m
0 -3.5 l

gsave
0.000 setgray
fill
grestore
stroke
grestore
} bind def
66.0981 37.5438 o
grestore
/DejaVuSans findfont
10.000 scalefont
setfont
gsave
62.918438 22.950000 translate
0.000000 rotate
0.000000 0.000000 m /six glyphshow
grestore
gsave
/o {
gsave
newpath
translate
0.8 setlinewidth
1 setlinejoin
0 setlinecap
0 0 m
0 -3.5 l

gsave
0.000 setgray
fill
grestore
stroke
grestore
} bind def
110.738 37.5438 o
grestore
gsave
107.558438 22.950000 translate
0.000000 rotate
0.000000 0.000000 m /eight glyphshow
grestore
gsave
/o {
gsave
newpath
translate
0.8 setlinewidth
1 setlinejoin
0 setlinecap
0 0 m
0 -3.5 l

gsave
0.000 setgray
fill
grestore
stroke
grestore
} bind def
155.378 37.5438 o
grestore
gsave
149.018750 22.950000 translate
0.000000 rotate
0.000000 0.000000 m /one glyphshow
6.362305 0.000000 m /zero glyphshow
grestore
gsave
/o {
gsave
newpath
translate
0.8 setlinewidth
1 setlinejoin
0 setlinecap
0 0 m
0 -3.5 l

gsave
0.000 setgray
fill
grestore
stroke
grestore
} bind def
200.018 37.5438 o
grestore
gsave
193.658750 22.950000 translate
0.000000 rotate
0.000000 0.000000 m /one glyphshow
6.362305 0.000000 m /two glyphshow
grestore
gsave
/o {
gsave
newpath
translate
0.8 setlinewidth
1 setlinejoin
0 setlinecap
0 0 m
0 -3.5 l

gsave
0.000 setgray
fill
grestore
stroke
grestore
} bind def
244.658 37.5438 o
grestore
gsave
238.298750 22.950000 translate
0.000000 rotate
0.000000 0.000000 m /one glyphshow
6.362305 0.000000 m /four glyphshow
grestore
gsave
/o {
gsave
newpath
translate
0.8 setlinewidth
1 setlinejoin
0 setlinecap
0 0 m
0 -3.5 l

gsave
0.000 setgray
fill
grestore
stroke
grestore
} bind def
289.298 37.5438 o
grestore
gsave
282.938750 22.950000 translate
0.000000 rotate
0.000000 0.000000 m /one glyphshow
6.362305 0.000000 m /six glyphshow
grestore
gsave
/o {
gsave
newpath
translate
0.8 setlinewidth
1 setlinejoin
0 setlinecap
0 0 m
0 -3.5 l

gsave
0.000 setgray
fill
grestore
stroke
grestore
} bind def
333.938 37.5438 o
grestore
gsave
327.578750 22.950000 translate
0.000000 rotate
0.000000 0.000000 m /one glyphshow
6.362305 0.000000 m /eight glyphshow
grestore
gsave
/o {
gsave
newpath
translate
0.8 setlinewidth
1 setlinejoin
0 setlinecap
0 0 m
0 -3.5 l

gsave
0.000 setgray
fill
grestore
stroke
grestore
} bind def
378.578 37.5438 o
grestore
gsave
372.218750 22.950000 translate
0.000000 rotate
0.000000 0.000000 m /two glyphshow
6.362305 0.000000 m /zero glyphshow
grestore
gsave
159.623438 9.278125 translate
0.000000 rotate
0.000000 0.000000 m /P glyphshow
6.030273 0.000000 m /h glyphshow
12.368164 0.000000 m /o glyphshow
18.486328 0.000000 m /t glyphshow
22.407227 0.000000 m /o glyphshow
28.525391 0.000000 m /n glyphshow
34.863281 0.000000 m /space glyphshow
38.041992 0.000000 m /E glyphshow
44.360352 0.000000 m /n glyphshow
50.698242 0.000000 m /e glyphshow
56.850586 0.000000 m /r glyphshow
60.961914 0.000000 m /g glyphshow
67.309570 0.000000 m /y glyphshow
73.227539 0.000000 m /space glyphshow
76.406250 0.000000 m /parenleft glyphshow
80.307617 0.000000 m /a glyphshow
86.435547 0.000000 m /period glyphshow
89.614258 0.000000 m /u glyphshow
95.952148 0.000000 m /period glyphshow
99.130859 0.000000 m /parenright glyphshow
grestore
gsave
/o {
gsave
newpath
translate
0.8 setlinewidth
1 setlinejoin
0 setlinecap
0 0 m
-3.5 0 l

gsave
0.000 setgray
fill
grestore
stroke
grestore
} bind def
43.7781 37.5438 o
grestore
gsave
20.871875 33.746875 translate
0.000000 rotate
0.000000 0.000000 m /zero glyphshow
6.362305 0.000000 m /period glyphshow
9.541016 0.000000 m /zero glyphshow
grestore
gsave
/o {
gsave
newpath
translate
0.8 setlinewidth
1 setlinejoin
0 setlinecap
0 0 m
-3.5 0 l

gsave
0.000 setgray
fill
grestore
stroke
grestore
} bind def
43.7781 91.9038 o
grestore
gsave
20.871875 88.106875 translate
0.000000 rotate
0.000000 0.000000 m /zero glyphshow
6.362305 0.000000 m /period glyphshow
9.541016 0.000000 m /two glyphshow
grestore
gsave
/o {
gsave
newpath
translate
0.8 setlinewidth
1 setlinejoin
0 setlinecap
0 0 m
-3.5 0 l

gsave
0.000 setgray
fill
grestore
stroke
grestore
} bind def
43.7781 146.264 o
grestore
gsave
20.871875 142.466875 translate
0.000000 rotate
0.000000 0.000000 m /zero glyphshow
6.362305 0.000000 m /period glyphshow
9.541016 0.000000 m /four glyphshow
grestore
gsave
/o {
gsave
newpath
translate
0.8 setlinewidth
1 setlinejoin
0 setlinecap
0 0 m
-3.5 0 l

gsave
0.000 setgray
fill
grestore
stroke
grestore
} bind def
43.7781 200.624 o
grestore
gsave
20.871875 196.826875 translate
0.000000 rotate
0.000000 0.000000 m /zero glyphshow
6.362305 0.000000 m /period glyphshow
9.541016 0.000000 m /six glyphshow
grestore
gsave
/o {
gsave
newpath
translate
0.8 setlinewidth
1 setlinejoin
0 setlinecap
0 0 m
-3.5 0 l

gsave
0.000 setgray
fill
grestore
stroke
grestore
} bind def
43.7781 254.984 o
grestore
gsave
20.871875 251.186875 translate
0.000000 rotate
0.000000 0.000000 m /zero glyphshow
6.362305 0.000000 m /period glyphshow
9.541016 0.000000 m /eight glyphshow
grestore
gsave
/o {
gsave
newpath
translate
0.8 setlinewidth
1 setlinejoin
0 setlinecap
0 0 m
-3.5 0 l

gsave
0.000 setgray
fill
grestore
stroke
grestore
} bind def
43.7781 309.344 o
grestore
gsave
20.871875 305.546875 translate
0.000000 rotate
0.000000 0.000000 m /one glyphshow
6.362305 0.000000 m /period glyphshow
9.541016 0.000000 m /zero glyphshow
grestore
gsave
14.793750 126.451563 translate
90.000000 rotate
0.000000 0.000000 m /C glyphshow
6.982422 0.000000 m /r glyphshow
11.093750 0.000000 m /o glyphshow
17.211914 0.000000 m /s glyphshow
22.421875 0.000000 m /s glyphshow
27.631836 0.000000 m /space glyphshow
30.810547 0.000000 m /S glyphshow
37.158203 0.000000 m /e glyphshow
43.310547 0.000000 m /c glyphshow
48.808594 0.000000 m /t glyphshow
52.729492 0.000000 m /i glyphshow
55.507812 0.000000 m /o glyphshow
61.625977 0.000000 m /n glyphshow
67.963867 0.000000 m /space glyphshow
71.142578 0.000000 m /parenleft glyphshow
75.043945 0.000000 m /M glyphshow
83.671875 0.000000 m /b glyphshow
90.019531 0.000000 m /parenright glyphshow
grestore
1.500 setlinewidth
2 setlinecap
gsave
334.8 271.8 43.78 37.54 clipbox
65.353429 321.340625 m
69.029784 311.488998 l
73.515992 300.204003 l
78.0022 289.630886 l
82.488408 279.707602 l
86.974615 270.379025 l
91.460823 261.596016 l
95.947031 253.314633 l
100.433239 245.495462 l
104.919447 238.103053 l
109.405655 231.105435 l
113.891862 224.4737 l
118.37807 218.18165 l
122.864278 212.205483 l
127.350486 206.523531 l
131.836694 201.116025 l
136.322902 195.964893 l
140.80911 191.053584 l
147.538421 184.103405 l
154.267733 177.612736 l
160.997045 171.540713 l
167.726357 165.851062 l
174.455668 160.511484 l
181.18498 155.493123 l
187.914292 150.77013 l
194.643604 146.319277 l
201.372915 142.119644 l
208.102227 138.152337 l
214.831539 134.400251 l
221.560851 130.847869 l
230.533266 126.397807 l
239.505682 122.247796 l
248.478098 118.37121 l
257.450513 114.744377 l
266.422929 111.346177 l
275.395345 108.157722 l
286.610864 104.441454 l
297.826384 100.997151 l
309.041903 97.798956 l
320.257423 94.824055 l
331.472943 92.05225 l
344.931566 88.969046 l
358.39019 86.125232 l
371.848813 83.496916 l
378.578125 82.256915 l
378.578125 82.256915 l
stroke
grestore
0.122 0.467 0.706 setrgbcolor
gsave
334.8 271.8 43.78 37.54 clipbox
63.361105 321.340625 m
75.759096 288.730371 l
89.217719 251.739358 l
95.947031 235.102617 l
98.190135 229.942257 l
100.433239 225.187045 l
102.676343 220.867206 l
104.919447 216.978503 l
107.162551 213.515382 l
109.405655 210.483196 l
111.648759 207.902929 l
113.891862 205.811521 l
116.134966 204.243021 l
118.37807 203.168562 l
122.864278 201.718309 l
125.107382 201.035515 l
127.350486 200.866907 l
131.836694 202.502385 l
134.079798 202.373998 l
136.322902 202.59769 l
138.566006 204.026022 l
140.80911 203.800822 l
143.052213 203.144623 l
145.295317 203.978796 l
147.538421 201.80714 l
149.781525 200.907536 l
152.024629 198.871048 l
154.267733 195.362251 l
156.510837 193.089387 l
158.753941 187.736963 l
160.997045 184.653256 l
163.240149 178.46752 l
165.483253 174.176139 l
167.726357 168.571157 l
169.96946 162.404934 l
172.212564 158.665971 l
174.455668 151.36741 l
176.698772 147.46516 l
178.941876 143.215025 l
181.18498 136.806941 l
183.428084 133.579061 l
185.671188 130.879732 l
187.914292 125.873157 l
190.157396 121.816608 l
192.4005 120.185539 l
194.643604 118.773585 l
196.886708 115.998788 l
199.129811 112.787362 l
201.372915 110.508268 l
203.616019 109.486177 l
205.859123 109.29749 l
212.588435 109.7212 l
214.831539 109.984416 l
217.074643 110.482124 l
219.317747 111.293691 l
221.560851 112.426204 l
226.047058 115.164312 l
228.290162 116.283624 l
230.533266 117.05918 l
232.77637 117.998327 l
235.019474 120.369582 l
237.262578 125.549047 l
239.505682 132.99817 l
241.748786 138.015314 l
243.99189 137.159258 l
246.234994 137.480471 l
248.478098 146.742838 l
250.721202 154.947203 l
252.964306 148.400337 l
255.207409 149.851269 l
257.450513 161.106805 l
259.693617 148.631317 l
261.936721 148.800566 l
264.179825 152.282127 l
266.422929 134.362047 l
268.666033 143.723903 l
270.909137 122.989343 l
273.152241 129.659498 l
275.395345 110.886829 l
277.638449 117.539715 l
279.881553 98.729839 l
282.124656 106.930609 l
284.36776 90.561484 l
286.610864 92.379933 l
288.853968 90.410172 l
291.097072 78.767892 l
293.340176 86.686564 l
295.58328 79.758589 l
297.826384 71.93038 l
300.069488 79.990379 l
302.312592 77.502334 l
304.555696 67.636421 l
306.7988 71.62238 l
309.041903 80.429561 l
311.285007 70.23096 l
313.528111 65.329811 l
315.771215 74.555839 l
318.014319 83.168031 l
320.257423 69.607726 l
322.500527 67.422941 l
324.743631 85.448505 l
326.986735 89.03399 l
329.229839 71.228582 l
331.472943 84.769238 l
333.716047 114.537266 l
335.959151 79.368425 l
338.202254 118.089398 l
340.445358 102.76175 l
342.688462 114.375367 l
344.931566 102.099502 l
347.17467 167.595698 l
349.417774 78.116608 l
351.660878 65.911238 l
353.903982 62.23653 l
356.147086 51.558822 l
358.39019 42.091 l
360.633294 41.693106 l
362.876398 38.142646 l
365.119501 37.697355 l
367.362605 37.553783 l
378.578125 37.54375 l
378.578125 37.54375 l
stroke
grestore
1.000 0.498 0.055 setrgbcolor
gsave
334.8 271.8 43.78 37.54 clipbox
63.380082 321.340625 m
64.543576 317.983294 l
71.272888 299.932261 l
73.515992 294.006846 l
80.245304 277.752079 l
86.974615 263.098335 l
89.217719 258.73264 l
95.947031 246.684416 l
98.190135 242.887423 l
100.433239 239.349473 l
102.676343 236.061954 l
107.162551 230.06642 l
111.648759 224.640992 l
113.891862 222.138111 l
118.37807 217.609658 l
120.621174 215.389823 l
122.864278 212.845485 l
127.350486 206.914936 l
131.836694 202.308204 l
136.322902 195.230389 l
138.566006 192.903343 l
140.80911 189.431308 l
143.052213 185.241954 l
145.295317 182.941322 l
147.538421 178.614801 l
149.781525 175.349033 l
152.024629 172.344032 l
154.267733 168.115301 l
156.510837 166.041361 l
158.753941 161.645846 l
160.997045 160.057917 l
163.240149 156.091173 l
165.483253 154.517665 l
169.96946 149.324545 l
172.212564 148.977343 l
174.455668 145.560871 l
176.698772 145.500364 l
178.941876 145.003396 l
181.18498 142.337689 l
183.428084 142.993902 l
185.671188 144.005335 l
187.914292 142.217834 l
190.157396 141.544302 l
192.4005 143.677541 l
194.643604 145.602505 l
196.886708 145.308856 l
199.129811 144.362356 l
201.372915 144.746491 l
203.616019 146.725599 l
205.859123 149.38094 l
208.102227 151.711431 l
210.345331 153.242251 l
212.588435 154.009412 l
214.831539 154.25557 l
217.074643 154.196113 l
219.317747 153.947798 l
221.560851 153.540488 l
223.803955 152.921202 l
226.047058 151.901933 l
228.290162 150.066858 l
230.533266 146.787637 l
232.77637 141.646636 l
235.019474 135.288506 l
237.262578 129.757603 l
239.505682 127.217366 l
241.748786 127.110679 l
243.99189 123.871412 l
246.234994 114.718155 l
248.478098 108.319701 l
250.721202 109.2916 l
252.964306 105.464587 l
255.207409 96.020007 l
257.450513 96.99307 l
259.693617 93.79319 l
261.936721 86.166135 l
264.179825 89.897189 l
266.422929 80.996614 l
268.666033 83.611432 l
270.909137 77.671171 l
273.152241 79.038767 l
275.395345 74.146317 l
277.638449 77.036411 l
279.881553 70.448947 l
282.124656 76.58435 l
284.36776 68.564423 l
286.610864 73.097761 l
288.853968 72.176515 l
291.097072 67.266256 l
293.340176 75.664239 l
295.58328 71.372394 l
297.826384 67.931748 l
300.069488 78.217116 l
302.312592 77.263577 l
304.555696 70.376577 l
306.7988 79.043747 l
309.041903 92.545748 l
311.285007 81.99455 l
313.528111 80.942782 l
315.771215 104.168838 l
318.014319 119.280147 l
320.257423 100.124418 l
322.500527 112.602433 l
324.743631 178.5537 l
326.986735 153.111645 l
329.229839 142.495326 l
331.472943 258.610191 l
333.716047 171.621361 l
335.959151 171.963043 l
338.202254 202.358704 l
340.445358 109.966557 l
342.688462 160.057814 l
344.931566 76.906602 l
347.17467 86.727821 l
349.417774 75.059998 l
351.660878 50.217595 l
353.903982 46.953502 l
356.147086 44.212084 l
358.39019 40.774931 l
360.633294 41.987578 l
362.876398 38.238017 l
365.119501 37.770675 l
367.362605 37.56221 l
378.578125 37.54375 l
378.578125 37.54375 l
stroke
grestore
0.173 0.627 0.173 setrgbcolor
gsave
334.8 271.8 43.78 37.54 clipbox
63.166847 321.340625 m
64.543576 317.450806 l
69.029784 305.503209 l
75.759096 289.153375 l
80.245304 278.819572 l
84.731512 269.44818 l
86.974615 264.702306 l
89.217719 260.422084 l
100.433239 240.396362 l
104.919447 233.279046 l
109.405655 226.617991 l
113.891862 220.38429 l
118.37807 214.810594 l
120.621174 212.148066 l
122.864278 209.248115 l
127.350486 202.879008 l
129.59359 200.493483 l
131.836694 198.316819 l
136.322902 191.913634 l
138.566006 190.103191 l
140.80911 187.345833 l
143.052213 183.933275 l
145.295317 182.510626 l
147.538421 179.180193 l
149.781525 176.874002 l
152.024629 174.961827 l
154.267733 171.681325 l
156.510837 170.68757 l
158.753941 167.122244 l
160.997045 166.523458 l
163.240149 163.152076 l
165.483253 162.429228 l
167.726357 160.064342 l
169.96946 158.093163 l
172.212564 157.876655 l
174.455668 154.357372 l
176.698772 154.539424 l
178.941876 153.325331 l
181.18498 150.145068 l
183.428084 150.556655 l
185.671188 150.208846 l
187.914292 146.938126 l
190.157396 145.48267 l
192.4005 146.367336 l
194.643604 145.91378 l
199.129811 140.37297 l
201.372915 139.243764 l
205.859123 139.533838 l
208.102227 139.022498 l
210.345331 137.748878 l
217.074643 132.604676 l
219.317747 131.202602 l
221.560851 130.095443 l
223.803955 129.289329 l
228.290162 128.033245 l
230.533266 126.70622 l
232.77637 124.081257 l
235.019474 120.274163 l
237.262578 116.838871 l
239.505682 115.997498 l
241.748786 118.129549 l
243.99189 118.683534 l
246.234994 113.10595 l
248.478098 108.377533 l
250.721202 111.355652 l
252.964306 111.608156 l
255.207409 103.361946 l
257.450513 105.435933 l
259.693617 106.480168 l
261.936721 97.986441 l
264.179825 104.772773 l
266.422929 97.052529 l
268.666033 99.765181 l
270.909137 97.575867 l
273.152241 97.121763 l
275.395345 97.136715 l
277.638449 98.13206 l
279.881553 95.300576 l
282.124656 103.653021 l
284.36776 93.717493 l
286.610864 109.725658 l
288.853968 99.518106 l
291.097072 104.707177 l
293.340176 119.828612 l
295.58328 104.548477 l
300.069488 135.156796 l
302.312592 114.850048 l
304.555696 130.101623 l
306.7988 155.299889 l
309.041903 123.592216 l
311.285007 123.09157 l
313.528111 154.456861 l
315.771215 122.136601 l
318.014319 98.71136 l
320.257423 114.478207 l
322.500527 111.137477 l
324.743631 77.382693 l
326.986735 76.205934 l
329.229839 91.495861 l
331.472943 64.246702 l
333.716047 58.744259 l
335.959151 74.085311 l
338.202254 52.296991 l
340.445358 55.145956 l
342.688462 52.657582 l
344.931566 48.385011 l
347.17467 47.18075 l
349.417774 52.421273 l
351.660878 42.386962 l
353.903982 41.356868 l
356.147086 40.725346 l
358.39019 39.480626 l
360.633294 40.984646 l
362.876398 38.155484 l
365.119501 37.792861 l
367.362605 37.56938 l
378.578125 37.54375 l
378.578125 37.54375 l
stroke
grestore
0.839 0.153 0.157 setrgbcolor
gsave
334.8 271.8 43.78 37.54 clipbox
63.052382 321.340625 m
64.543576 317.131099 l
69.029784 305.215342 l
75.759096 288.959524 l
80.245304 278.70464 l
84.731512 269.405004 l
86.974615 264.686455 l
89.217719 260.424602 l
100.433239 240.289828 l
104.919447 233.027422 l
109.405655 226.176837 l
113.891862 219.73391 l
118.37807 213.965279 l
120.621174 211.224218 l
122.864278 208.266142 l
127.350486 201.851625 l
129.59359 199.480406 l
131.836694 197.351695 l
136.322902 191.15152 l
138.566006 189.482829 l
140.80911 186.902162 l
143.052213 183.689472 l
145.295317 182.484333 l
147.538421 179.388067 l
149.781525 177.318614 l
152.024629 175.653204 l
154.267733 172.594033 l
156.510837 171.833359 l
158.753941 168.442306 l
160.997045 168.033795 l
163.240149 164.757231 l
165.483253 164.159121 l
167.726357 161.782794 l
169.96946 159.83781 l
172.212564 159.523078 l
174.455668 155.852202 l
176.698772 155.913429 l
178.941876 154.3619 l
181.18498 150.908462 l
183.428084 151.046702 l
185.671188 150.200508 l
187.914292 146.486487 l
190.157396 144.709237 l
192.4005 145.144783 l
194.643604 144.113813 l
196.886708 140.863408 l
199.129811 137.817966 l
201.372915 136.443018 l
205.859123 136.170389 l
208.102227 135.440383 l
210.345331 134.068703 l
214.831539 130.760901 l
217.074643 129.366836 l
219.317747 128.310194 l
221.560851 127.63301 l
223.803955 127.339815 l
228.290162 127.364124 l
230.533266 126.793798 l
232.77637 124.95304 l
235.019474 121.877694 l
237.262578 119.07388 l
239.505682 118.832164 l
241.748786 121.704318 l
243.99189 123.154884 l
246.234994 118.050857 l
248.478098 113.224558 l
250.721202 116.480489 l
252.964306 117.647949 l
255.207409 108.887956 l
257.450513 110.387928 l
259.693617 112.532153 l
261.936721 102.75657 l
264.179825 109.348597 l
266.422929 102.068652 l
268.666033 102.887886 l
270.909137 102.350781 l
273.152241 99.17469 l
275.395345 101.322272 l
277.638449 99.031712 l
279.881553 98.597121 l
282.124656 103.492743 l
284.36776 95.112426 l
286.610864 110.337731 l
288.853968 97.285624 l
291.097072 105.958042 l
293.340176 114.125101 l
295.58328 100.10331 l
297.826384 117.691261 l
300.069488 121.515605 l
302.312592 104.497505 l
304.555696 121.90222 l
306.7988 131.811522 l
309.041903 104.683737 l
311.285007 109.029551 l
313.528111 130.286641 l
315.771215 100.554723 l
318.014319 86.396583 l
320.257423 101.628821 l
322.500527 96.103671 l
324.743631 70.691179 l
326.986735 71.798135 l
329.229839 85.690758 l
331.472943 61.805796 l
333.716047 57.999698 l
335.959151 73.534024 l
338.202254 52.416982 l
340.445358 56.489862 l
342.688462 53.713586 l
344.931566 50.110152 l
347.17467 48.711262 l
349.417774 56.528399 l
351.660878 43.941451 l
353.903982 42.782113 l
356.147086 42.21058 l
358.39019 40.690564 l
360.633294 44.032071 l
362.876398 38.845609 l
367.362605 37.639621 l
371.848813 37.54375 l
378.578125 37.54375 l
378.578125 37.54375 l
stroke
grestore
0.580 0.404 0.741 setrgbcolor
gsave
334.8 271.8 43.78 37.54 clipbox
62.911904 321.340625 m
64.543576 316.745179 l
69.029784 304.858538 l
75.759096 288.636721 l
80.245304 278.390119 l
84.731512 269.080915 l
86.974615 264.350899 l
91.460823 256.029119 l
100.433239 239.805618 l
104.919447 232.486324 l
109.405655 225.590832 l
113.891862 219.123531 l
116.134966 216.14454 l
122.864278 207.688582 l
127.350486 201.336192 l
129.59359 199.002408 l
131.836694 196.916285 l
136.322902 190.816936 l
138.566006 189.198389 l
140.80911 186.672834 l
143.052213 183.512285 l
145.295317 182.356354 l
147.538421 179.311981 l
149.781525 177.282368 l
152.024629 175.662712 l
154.267733 172.633044 l
156.510837 171.906987 l
158.753941 168.532843 l
160.997045 168.146939 l
163.240149 164.869564 l
165.483253 164.285085 l
167.726357 161.885282 l
169.96946 159.944233 l
172.212564 159.593067 l
174.455668 155.895762 l
176.698772 155.93686 l
178.941876 154.318838 l
181.18498 150.833685 l
183.428084 150.937983 l
185.671188 150.013302 l
187.914292 146.247924 l
190.157396 144.448237 l
192.4005 144.834839 l
194.643604 143.733921 l
196.886708 140.441161 l
199.129811 137.387756 l
201.372915 136.013718 l
205.859123 135.726563 l
208.102227 134.994832 l
210.345331 133.637038 l
214.831539 130.406486 l
217.074643 129.070096 l
219.317747 128.080097 l
221.560851 127.476872 l
223.803955 127.264609 l
228.290162 127.478744 l
230.533266 127.019057 l
232.77637 125.282655 l
235.019474 122.267996 l
237.262578 119.448799 l
239.505682 119.129849 l
241.748786 121.950246 l
243.99189 123.486999 l
248.478098 113.310245 l
250.721202 116.247323 l
252.964306 117.537956 l
255.207409 108.630032 l
257.450513 109.563795 l
259.693617 111.880437 l
261.936721 101.876064 l
264.179825 107.935261 l
266.422929 101.059275 l
268.666033 101.130685 l
270.909137 101.065752 l
273.152241 97.235045 l
275.395345 99.82888 l
277.638449 96.864083 l
279.881553 97.027603 l
282.124656 101.060412 l
284.36776 93.436367 l
286.610864 108.019626 l
288.853968 95.239487 l
291.097072 104.308543 l
293.340176 111.626 l
295.58328 98.490898 l
297.826384 116.318396 l
300.069488 119.578114 l
302.312592 103.580948 l
304.555696 121.70649 l
306.7988 131.317093 l
309.041903 104.877762 l
311.285007 110.337921 l
313.528111 132.066215 l
315.771215 101.652394 l
318.014319 88.081285 l
320.257423 104.642337 l
322.500527 97.746021 l
324.743631 72.001945 l
326.986735 74.033207 l
329.229839 88.140561 l
331.472943 62.866816 l
333.716047 59.668102 l
335.959151 76.065021 l
338.202254 53.408994 l
340.445358 58.82376 l
342.688462 54.841485 l
344.931566 51.990812 l
347.17467 49.855066 l
349.417774 60.334462 l
351.660878 45.257573 l
353.903982 43.896089 l
356.147086 43.409377 l
358.39019 41.814579 l
360.633294 47.590926 l
362.876398 39.760814 l
365.119501 38.996306 l
367.362605 37.894852 l
369.605709 37.897058 l
371.848813 37.54375 l
378.578125 37.54375 l
378.578125 37.54375 l
stroke
grestore
0.800 setlinewidth
0 setlinejoin
[] 0 setdash
0.000 setgray
gsave
43.778125 37.54375 m
43.778125 309.34375 l
stroke
grestore
gsave
378.578125 37.54375 m
378.578125 309.34375 l
stroke
grestore
gsave
43.778125 37.54375 m
378.578125 37.54375 l
stroke
grestore
gsave
43.778125 309.34375 m
378.578125 309.34375 l
stroke
grestore
1.000 setlinewidth
0 setlinecap
0.800 setgray
gsave
295.03125 213.3125 m
371.578125 213.3125 l
372.911458 213.3125 373.578125 213.979167 373.578125 215.3125 c
373.578125 302.34375 l
373.578125 303.677083 372.911458 304.34375 371.578125 304.34375 c
295.03125 304.34375 l
293.697917 304.34375 293.03125 303.677083 293.03125 302.34375 c
293.03125 215.3125 l
293.03125 213.979167 293.697917 213.3125 295.03125 213.3125 c
cl
gsave
1.000 setgray
fill
grestore
stroke
grestore
1.500 setlinewidth
1 setlinejoin
2 setlinecap
[] 0 setdash
0.000 setgray
gsave
297.03125 296.25 m
317.03125 296.25 l
stroke
grestore
gsave
325.031250 292.750000 translate
0.000000 rotate
0.000000 0.000000 m /a glyphshow
6.127930 0.000000 m /n glyphshow
12.465820 0.000000 m /a glyphshow
18.593750 0.000000 m /l glyphshow
21.372070 0.000000 m /y glyphshow
27.290039 0.000000 m /t glyphshow
31.210938 0.000000 m /i glyphshow
33.989258 0.000000 m /c glyphshow
grestore
0.122 0.467 0.706 setrgbcolor
gsave
297.03125 281.578125 m
317.03125 281.578125 l
stroke
grestore
0.000 setgray
gsave
325.031250 278.078125 translate
0.000000 rotate
0.000000 0.000000 m /l glyphshow
2.778320 0.000000 m /M glyphshow
11.406250 0.000000 m /a glyphshow
17.534180 0.000000 m /x glyphshow
23.452148 0.000000 m /equal glyphshow
31.831055 0.000000 m /five glyphshow
grestore
1.000 0.498 0.055 setrgbcolor
gsave
297.03125 266.90625 m
317.03125 266.90625 l
stroke
grestore
0.000 setgray
gsave
325.031250 263.406250 translate
0.000000 rotate
0.000000 0.000000 m /l glyphshow
2.778320 0.000000 m /M glyphshow
11.406250 0.000000 m /a glyphshow
17.534180 0.000000 m /x glyphshow
23.452148 0.000000 m /equal glyphshow
31.831055 0.000000 m /one glyphshow
38.193359 0.000000 m /zero glyphshow
grestore
0.173 0.627 0.173 setrgbcolor
gsave
297.03125 252.234375 m
317.03125 252.234375 l
stroke
grestore
0.000 setgray
gsave
325.031250 248.734375 translate
0.000000 rotate
0.000000 0.000000 m /l glyphshow
2.778320 0.000000 m /M glyphshow
11.406250 0.000000 m /a glyphshow
17.534180 0.000000 m /x glyphshow
23.452148 0.000000 m /equal glyphshow
31.831055 0.000000 m /one glyphshow
38.193359 0.000000 m /five glyphshow
grestore
0.839 0.153 0.157 setrgbcolor
gsave
297.03125 237.5625 m
317.03125 237.5625 l
stroke
grestore
0.000 setgray
gsave
325.031250 234.062500 translate
0.000000 rotate
0.000000 0.000000 m /l glyphshow
2.778320 0.000000 m /M glyphshow
11.406250 0.000000 m /a glyphshow
17.534180 0.000000 m /x glyphshow
23.452148 0.000000 m /equal glyphshow
31.831055 0.000000 m /two glyphshow
38.193359 0.000000 m /zero glyphshow
grestore
0.580 0.404 0.741 setrgbcolor
gsave
297.03125 222.890625 m
317.03125 222.890625 l
stroke
grestore
0.000 setgray
gsave
325.031250 219.390625 translate
0.000000 rotate
0.000000 0.000000 m /l glyphshow
2.778320 0.000000 m /M glyphshow
11.406250 0.000000 m /a glyphshow
17.534180 0.000000 m /x glyphshow
23.452148 0.000000 m /equal glyphshow
31.831055 0.000000 m /three glyphshow
38.193359 0.000000 m /zero glyphshow
grestore

end
showpage
